<svg width="666" height="224" viewBox="0 0 666 224" fill="none" xmlns="http://www.w3.org/2000/svg">
<path d="M82.584 19.758C89.096 19.758 95.904 20.35 103.008 21.534C110.112 22.57 115.662 23.976 119.658 25.752C120.99 26.196 121.804 26.788 122.1 27.528C122.544 28.12 122.914 29.23 123.21 30.858L125.874 61.716C125.874 62.16 125.504 62.456 124.764 62.604C124.024 62.752 123.58 62.53 123.432 61.938C118.4 50.246 111.666 41.218 103.23 34.854C94.794 28.49 85.026 25.308 73.926 25.308C59.274 25.308 47.952 30.71 39.96 41.514C31.968 52.318 27.972 66.822 27.972 85.026C27.972 98.642 30.118 111.074 34.41 122.322C38.85 133.57 44.992 142.524 52.836 149.184C60.828 155.696 69.856 158.952 79.92 158.952C89.392 158.952 97.828 155.844 105.228 149.628C112.776 143.264 119.51 133.644 125.43 120.768C125.578 120.176 126.022 119.954 126.762 120.102C127.65 120.25 128.094 120.546 128.094 120.99L124.764 151.182C124.468 152.958 124.098 154.142 123.654 154.734C123.358 155.178 122.544 155.696 121.212 156.288C108.04 161.172 94.498 163.614 80.586 163.614C62.53 163.614 47.434 160.062 35.298 152.958C23.162 145.706 14.208 136.604 8.436 125.652C2.812 114.552 0 103.008 0 91.02C0 76.96 3.774 64.528 11.322 53.724C19.018 42.92 29.156 34.558 41.736 28.638C54.464 22.718 68.08 19.758 82.584 19.758Z" fill="#FFB01E"/>
<path d="M230.646 148.962C231.238 148.962 231.608 149.332 231.756 150.072C232.052 150.664 231.904 151.108 231.312 151.404L208.446 162.282C207.854 162.578 207.114 162.726 206.226 162.726C204.006 162.726 201.786 161.616 199.566 159.396C197.494 157.176 196.014 154.142 195.126 150.294L184.914 155.844C181.066 157.768 177.07 159.396 172.926 160.728C168.782 161.912 165.082 162.504 161.826 162.504C157.09 162.504 153.316 161.32 150.504 158.952C147.84 156.436 146.508 152.884 146.508 148.296C146.508 144.892 147.322 142.154 148.95 140.082C150.726 138.01 153.168 136.308 156.276 134.976C159.532 133.496 164.638 131.572 171.594 129.204L194.238 121.878V104.34C194.238 95.46 193.35 88.948 191.574 84.804C189.798 80.512 186.912 78.366 182.916 78.366C179.364 78.366 176.552 79.698 174.48 82.362C172.408 85.026 171.15 89.392 170.706 95.46C169.818 103.748 165.452 107.892 157.608 107.892C150.652 107.892 147.174 104.858 147.174 98.79C147.174 94.794 149.69 90.798 154.722 86.802C159.754 82.806 165.822 79.55 172.926 77.034C180.03 74.518 186.246 73.26 191.574 73.26C198.53 73.26 204.154 75.332 208.446 79.476C212.886 83.62 215.106 89.688 215.106 97.68V136.974C215.106 141.266 215.846 144.596 217.326 146.964C218.954 149.332 221.174 150.516 223.986 150.516C226.058 150.516 228.204 149.998 230.424 148.962H230.646ZM194.46 146.742C194.312 145.706 194.238 144.152 194.238 142.08V125.652L182.028 130.092C178.032 131.572 175.146 133.2 173.37 134.976C171.742 136.752 170.928 138.898 170.928 141.414C170.928 144.522 171.816 146.964 173.592 148.74C175.368 150.516 177.588 151.404 180.252 151.404C183.508 151.404 187.282 150.368 191.574 148.296L194.46 146.742Z" fill="#FFB01E"/>
<path d="M302.995 145.41C303.587 145.41 304.031 145.706 304.327 146.298C304.771 146.89 304.771 147.334 304.327 147.63C298.851 153.106 293.523 157.176 288.343 159.84C283.163 162.356 277.687 163.614 271.915 163.614C265.403 163.614 259.853 162.06 255.265 158.952C250.677 155.844 248.383 150.59 248.383 143.19V93.906C248.383 89.318 247.569 86.136 245.941 84.36C244.313 82.584 241.353 81.696 237.061 81.696C236.913 81.696 236.691 81.474 236.395 81.03C236.247 80.586 236.173 80.142 236.173 79.698C236.173 79.106 236.247 78.662 236.395 78.366C236.543 77.922 236.765 77.7 237.061 77.7C244.609 77.404 250.677 75.776 255.265 72.816C260.001 69.856 263.627 65.342 266.143 59.274C266.439 58.682 267.031 58.386 267.919 58.386C268.955 58.386 269.473 58.682 269.473 59.274V77.034C278.057 76.886 287.677 76.22 298.333 75.036C298.629 75.036 298.925 75.628 299.221 76.812C299.665 77.848 299.887 79.032 299.887 80.364C299.887 81.844 299.591 83.324 298.999 84.804C298.555 86.136 298.037 86.728 297.445 86.58C287.825 84.508 278.501 83.398 269.473 83.25V135.864C269.473 141.488 270.879 145.632 273.691 148.296C276.651 150.96 280.499 152.292 285.235 152.292C291.155 152.292 296.927 150.072 302.551 145.632L302.995 145.41Z" fill="#FFB01E"/>
<path d="M398.663 148.962C399.255 148.962 399.625 149.332 399.773 150.072C400.069 150.664 399.921 151.108 399.329 151.404L376.463 162.282C375.871 162.578 375.131 162.726 374.243 162.726C372.023 162.726 369.803 161.616 367.583 159.396C365.511 157.176 364.031 154.142 363.143 150.294L352.931 155.844C349.083 157.768 345.087 159.396 340.943 160.728C336.799 161.912 333.099 162.504 329.843 162.504C325.107 162.504 321.333 161.32 318.521 158.952C315.857 156.436 314.525 152.884 314.525 148.296C314.525 144.892 315.339 142.154 316.967 140.082C318.743 138.01 321.185 136.308 324.293 134.976C327.549 133.496 332.655 131.572 339.611 129.204L362.255 121.878V104.34C362.255 95.46 361.367 88.948 359.591 84.804C357.815 80.512 354.929 78.366 350.933 78.366C347.381 78.366 344.569 79.698 342.497 82.362C340.425 85.026 339.167 89.392 338.723 95.46C337.835 103.748 333.469 107.892 325.625 107.892C318.669 107.892 315.191 104.858 315.191 98.79C315.191 94.794 317.707 90.798 322.739 86.802C327.771 82.806 333.839 79.55 340.943 77.034C348.047 74.518 354.263 73.26 359.591 73.26C366.547 73.26 372.171 75.332 376.463 79.476C380.903 83.62 383.123 89.688 383.123 97.68V136.974C383.123 141.266 383.863 144.596 385.343 146.964C386.971 149.332 389.191 150.516 392.003 150.516C394.075 150.516 396.221 149.998 398.441 148.962H398.663ZM362.477 146.742C362.329 145.706 362.255 144.152 362.255 142.08V125.652L350.045 130.092C346.049 131.572 343.163 133.2 341.387 134.976C339.759 136.752 338.945 138.898 338.945 141.414C338.945 144.522 339.833 146.964 341.609 148.74C343.385 150.516 345.605 151.404 348.269 151.404C351.525 151.404 355.299 150.368 359.591 148.296L362.477 146.742Z" fill="#FFB01E"/>
<path d="M406.855 160.95C406.559 160.95 406.411 160.506 406.411 159.618C406.411 158.73 406.559 158.286 406.855 158.286C411.443 158.286 414.551 157.25 416.179 155.178C417.955 152.958 418.843 148.888 418.843 142.968L419.065 30.192C419.065 25.012 418.547 21.312 417.511 19.092C416.623 16.872 414.995 15.762 412.627 15.762C410.703 15.762 407.891 16.576 404.191 18.204H403.969C403.525 18.204 403.081 17.834 402.637 17.094C402.341 16.206 402.341 15.688 402.637 15.54L435.271 0.221997L436.159 0C436.899 0 437.713 0.37 438.601 1.11C439.489 1.702 439.933 2.294 439.933 2.886V142.968C439.933 148.888 440.747 152.958 442.375 155.178C444.003 157.25 447.111 158.286 451.699 158.286C452.291 158.286 452.587 158.73 452.587 159.618C452.587 160.506 452.291 160.95 451.699 160.95C447.999 160.95 445.039 160.876 442.819 160.728L429.277 160.506L415.957 160.728C413.737 160.876 410.703 160.95 406.855 160.95Z" fill="#FFB01E"/>
<path d="M511.101 163.836C501.925 163.836 493.859 161.764 486.903 157.62C480.095 153.328 474.841 147.63 471.141 140.526C467.441 133.274 465.591 125.43 465.591 116.994C465.591 107.374 468.033 99.234 472.917 92.574C477.801 85.766 484.017 80.734 491.565 77.478C499.113 74.074 506.883 72.372 514.875 72.372C524.051 72.372 532.043 74.518 538.851 78.81C545.659 83.102 550.839 88.8 554.391 95.904C558.091 102.86 559.941 110.334 559.941 118.326C559.941 127.206 557.721 135.124 553.281 142.08C548.841 148.888 542.847 154.216 535.299 158.064C527.899 161.912 519.833 163.836 511.101 163.836ZM517.761 159.174C523.533 159.174 527.899 156.362 530.859 150.738C533.967 144.966 535.521 136.752 535.521 126.096C535.521 115.736 534.189 106.856 531.525 99.456C528.861 92.056 525.383 86.506 521.091 82.806C516.799 78.958 512.211 77.034 507.327 77.034C495.487 77.034 489.567 87.616 489.567 108.78C489.567 118.696 490.825 127.502 493.341 135.198C495.857 142.746 499.261 148.666 503.553 152.958C507.845 157.102 512.581 159.174 517.761 159.174Z" fill="#FFB01E"/>
<path d="M623.935 151.182C632.667 152.662 639.622 154.142 644.802 155.622C649.982 157.102 654.422 159.618 658.122 163.17C661.971 166.722 663.894 171.754 663.894 178.266C663.894 186.258 661.305 193.732 656.125 200.688C651.093 207.644 644.21 213.194 635.478 217.338C626.894 221.482 617.57 223.554 607.506 223.554C596.554 223.554 587.6 221.186 580.644 216.45C573.688 211.714 570.21 205.572 570.21 198.024C570.21 192.992 571.839 187.812 575.094 182.484C578.35 177.156 584.418 171.31 593.298 164.946C588.858 163.614 585.38 161.69 582.865 159.174C580.497 156.658 579.312 153.254 579.312 148.962C579.312 145.262 580.718 141.488 583.53 137.64C586.49 133.644 591.004 129.944 597.072 126.54C590.56 124.32 585.529 120.916 581.977 116.328C578.424 111.74 576.648 106.782 576.648 101.454C576.648 95.534 578.572 90.502 582.42 86.358C586.268 82.214 591.152 79.106 597.072 77.034C602.992 74.814 608.912 73.704 614.832 73.704C624.748 73.704 632.962 76.146 639.474 81.03C643.47 78.366 647.392 76.368 651.24 75.036C655.089 73.704 659.232 73.038 663.672 73.038C664.857 73.038 665.448 75.11 665.448 79.254C665.448 81.326 665.152 83.62 664.56 86.136C663.969 88.652 663.451 89.688 663.006 89.244C656.79 86.728 651.24 85.47 646.357 85.47H644.581C648.429 90.058 650.352 95.238 650.352 101.01C650.352 106.634 648.429 111.592 644.581 115.884C640.88 120.028 636.07 123.21 630.15 125.43C624.23 127.65 618.162 128.76 611.946 128.76C607.951 128.76 604.176 128.316 600.624 127.428C597.664 129.796 596.185 132.83 596.185 136.53C596.185 139.786 597.368 142.302 599.736 144.078C602.252 145.854 605.286 147.186 608.839 148.074C612.391 148.962 617.422 149.998 623.935 151.182ZM607.506 77.922C601.29 77.922 598.182 83.768 598.182 95.46C598.182 103.156 600.032 109.964 603.732 115.884C607.432 121.804 612.169 124.764 617.94 124.764C620.753 124.764 623.194 123.284 625.266 120.324C627.486 117.364 628.596 112.702 628.596 106.338C628.596 98.346 626.524 91.612 622.38 86.136C618.237 80.66 613.278 77.922 607.506 77.922ZM619.272 216.45C626.968 216.45 633.184 214.156 637.92 209.568C642.805 205.128 645.246 199.134 645.246 191.586C645.246 185.962 643.618 181.596 640.362 178.488C637.255 175.528 633.406 173.382 628.818 172.05C624.378 170.866 618.236 169.682 610.392 168.498L598.404 166.5C594.26 171.384 592.188 178.34 592.188 187.368C592.188 196.692 594.704 203.87 599.736 208.902C604.768 213.934 611.28 216.45 619.272 216.45Z" fill="#FFB01E"/>
</svg>
