<svg width="698" height="193" viewBox="0 0 698 193" fill="none" xmlns="http://www.w3.org/2000/svg">
<path d="M83.72 97.24C98.28 98.9733 109.807 103.827 118.3 111.8C126.967 119.773 131.3 129.653 131.3 141.44C131.3 150.453 128.7 158.6 123.5 165.88C118.3 173.16 111.107 178.967 101.92 183.3C92.7333 187.46 82.5067 189.54 71.24 189.54C66.3867 189.54 60.84 189.28 54.6 188.76C52.1733 188.587 49.14 188.413 45.5 188.24C42.0333 188.067 38.1333 187.98 33.8 187.98L14.82 188.24C11.3533 188.413 6.67333 188.5 0.779999 188.5C0.259999 188.5 0 187.98 0 186.94C0 185.9 0.259999 185.38 0.779999 185.38C5.80667 185.38 9.62 184.947 12.22 184.08C14.82 183.04 16.64 181.307 17.68 178.88C18.8933 176.28 19.5 172.467 19.5 167.44V47.06C19.5 39.78 18.2867 35.0133 15.86 32.76C13.4333 30.3333 8.49333 29.12 1.04 29.12C0.693333 29.12 0.52 28.6 0.52 27.56C0.52 26.52 0.693333 26 1.04 26L14.82 26.26C22.7933 26.6067 29.12 26.78 33.8 26.78C38.6533 26.78 43.68 26.52 48.88 26C50.6133 25.8267 53.2133 25.6533 56.68 25.48C60.1467 25.3067 63.18 25.22 65.78 25.22C81.5533 25.22 93.7733 28.08 102.44 33.8C111.107 39.52 115.44 47.84 115.44 58.76C115.44 67.08 112.667 74.62 107.12 81.38C101.747 88.14 93.9467 93.4267 83.72 97.24ZM61.88 30.94C56.8533 30.94 53.3867 32.1533 51.48 34.58C49.5733 36.8333 48.62 41.1667 48.62 47.58V96.98L59.02 97.24C68.0333 97.24 74.9667 93.86 79.82 87.1C84.6733 80.34 87.1 71.6733 87.1 61.1C87.1 51.22 84.9333 43.7667 80.6 38.74C76.2667 33.54 70.0267 30.94 61.88 30.94ZM66.82 183.04C89.5267 183.04 100.88 171.253 100.88 147.68C100.88 134.333 97.6733 123.76 91.26 115.96C84.8467 108.16 75.14 104.26 62.14 104.26C57.1133 104.26 52.6067 104.433 48.62 104.78V167.44C48.62 173.16 49.7467 177.233 52 179.66C54.2533 181.913 59.1933 183.04 66.82 183.04Z" fill="#FFB01E"/>
<path d="M222.489 85.54C226.476 85.54 230.289 87.0133 233.929 89.96C237.742 92.7333 239.649 96.1133 239.649 100.1C239.649 103.74 238.522 106.773 236.269 109.2C234.016 111.453 231.069 112.58 227.429 112.58C224.829 112.58 222.662 112.06 220.929 111.02C219.369 109.98 217.722 108.42 215.989 106.34C214.429 104.607 213.042 103.393 211.829 102.7C210.789 101.833 209.489 101.4 207.929 101.4C206.196 101.4 204.289 102.093 202.209 103.48C200.302 104.693 197.269 107.38 193.109 111.54V167.44C193.109 174.373 194.756 179.14 198.049 181.74C201.342 184.167 207.409 185.38 216.249 185.38C216.942 185.38 217.289 185.9 217.289 186.94C217.289 187.98 216.942 188.5 216.249 188.5C210.182 188.5 205.416 188.413 201.949 188.24L180.889 187.98L165.549 188.24C162.949 188.413 159.396 188.5 154.889 188.5C154.369 188.5 154.109 187.98 154.109 186.94C154.109 185.9 154.369 185.38 154.889 185.38C160.262 185.38 163.902 184.167 165.809 181.74C167.716 179.14 168.669 174.373 168.669 167.44V118.56C168.669 113.187 167.976 109.287 166.589 106.86C165.376 104.26 163.382 102.96 160.609 102.96C157.662 102.96 153.502 104.173 148.129 106.6H147.609C147.089 106.6 146.656 106.167 146.309 105.3C146.136 104.433 146.222 103.913 146.569 103.74L182.709 86.06C183.749 85.7133 184.356 85.54 184.529 85.54C186.436 85.54 188.169 87.36 189.729 91C191.462 94.4667 192.502 99.2333 192.849 105.3C199.956 98.02 205.762 92.9067 210.269 89.96C214.949 87.0133 219.022 85.54 222.489 85.54Z" fill="#FFB01E"/>
<path d="M349.158 174.46C349.851 174.46 350.284 174.893 350.458 175.76C350.804 176.453 350.631 176.973 349.938 177.32L323.158 190.06C322.464 190.407 321.598 190.58 320.558 190.58C317.958 190.58 315.358 189.28 312.758 186.68C310.331 184.08 308.598 180.527 307.558 176.02L295.598 182.52C291.091 184.773 286.411 186.68 281.558 188.24C276.704 189.627 272.371 190.32 268.558 190.32C263.011 190.32 258.591 188.933 255.298 186.16C252.178 183.213 250.618 179.053 250.618 173.68C250.618 169.693 251.571 166.487 253.478 164.06C255.558 161.633 258.418 159.64 262.058 158.08C265.871 156.347 271.851 154.093 279.998 151.32L306.518 142.74V122.2C306.518 111.8 305.478 104.173 303.398 99.32C301.318 94.2933 297.938 91.78 293.258 91.78C289.098 91.78 285.804 93.34 283.378 96.46C280.951 99.58 279.478 104.693 278.958 111.8C277.918 121.507 272.804 126.36 263.618 126.36C255.471 126.36 251.398 122.807 251.398 115.7C251.398 111.02 254.344 106.34 260.238 101.66C266.131 96.98 273.238 93.1667 281.558 90.22C289.878 87.2733 297.158 85.8 303.398 85.8C311.544 85.8 318.131 88.2267 323.158 93.08C328.358 97.9333 330.958 105.04 330.958 114.4V160.42C330.958 165.447 331.824 169.347 333.558 172.12C335.464 174.893 338.064 176.28 341.358 176.28C343.784 176.28 346.298 175.673 348.898 174.46H349.158ZM306.778 171.86C306.604 170.647 306.518 168.827 306.518 166.4V147.16L292.218 152.36C287.538 154.093 284.158 156 282.078 158.08C280.171 160.16 279.218 162.673 279.218 165.62C279.218 169.26 280.258 172.12 282.338 174.2C284.418 176.28 287.018 177.32 290.138 177.32C293.951 177.32 298.371 176.107 303.398 173.68L306.778 171.86Z" fill="#FFB01E"/>
<path d="M481.991 185.38C482.511 185.38 482.771 185.9 482.771 186.94C482.771 187.98 482.511 188.5 481.991 188.5C477.485 188.5 473.931 188.413 471.331 188.24L455.731 187.98L440.651 188.24C437.878 188.413 434.238 188.5 429.731 188.5C429.211 188.5 428.951 187.98 428.951 186.94C428.951 185.9 429.211 185.38 429.731 185.38C435.105 185.38 438.745 184.167 440.651 181.74C442.558 179.14 443.511 174.373 443.511 167.44V130C443.511 120.64 441.778 113.707 438.311 109.2C435.018 104.693 429.731 102.44 422.451 102.44C418.291 102.44 413.958 103.307 409.451 105.04C405.118 106.773 401.305 109.113 398.011 112.06V167.44C398.011 174.373 398.965 179.14 400.871 181.74C402.951 184.167 406.678 185.38 412.051 185.38C412.571 185.38 412.831 185.9 412.831 186.94C412.831 187.98 412.571 188.5 412.051 188.5C407.545 188.5 403.991 188.413 401.391 188.24L385.791 187.98L370.451 188.24C367.851 188.413 364.298 188.5 359.791 188.5C359.271 188.5 359.011 187.98 359.011 186.94C359.011 185.9 359.271 185.38 359.791 185.38C365.165 185.38 368.805 184.167 370.711 181.74C372.618 179.14 373.571 174.373 373.571 167.44V118.56C373.571 113.187 372.878 109.287 371.491 106.86C370.278 104.26 368.285 102.96 365.511 102.96C362.565 102.96 358.405 104.173 353.031 106.6H352.511C351.991 106.6 351.558 106.167 351.211 105.3C351.038 104.433 351.125 103.913 351.471 103.74L387.611 86.06C388.651 85.7133 389.258 85.54 389.431 85.54C391.338 85.54 393.158 87.4467 394.891 91.26C396.625 94.9 397.665 99.9267 398.011 106.34C409.971 92.1267 423.145 85.02 437.531 85.02C446.891 85.02 454.258 88.0533 459.631 94.12C465.178 100.013 467.951 107.813 467.951 117.52V167.44C467.951 174.373 468.905 179.14 470.811 181.74C472.891 184.167 476.618 185.38 481.991 185.38Z" fill="#FFB01E"/>
<path d="M617.287 171.6C617.807 171.6 618.24 172.033 618.587 172.9C619.107 173.767 619.193 174.287 618.847 174.46L582.967 191.88L581.667 192.14C580.107 192.14 578.633 190.493 577.247 187.2C576.033 183.907 575.253 179.4 574.907 173.68C562.08 185.813 548.993 191.88 535.647 191.88C528.02 191.88 521.087 189.887 514.847 185.9C508.78 181.913 503.927 176.107 500.287 168.48C496.647 160.68 494.827 151.58 494.827 141.18C494.827 128.007 497.86 117.26 503.927 108.94C510.167 100.447 517.793 94.2933 526.807 90.48C535.993 86.6667 545.18 84.76 554.367 84.76C560.78 84.76 567.54 85.8 574.647 87.88V35.36C574.647 29.2933 574.04 24.96 572.827 22.36C571.787 19.76 569.88 18.46 567.107 18.46C564.853 18.46 561.647 19.4133 557.487 21.32H557.227C556.533 21.32 555.927 20.8867 555.407 20.02C555.06 18.98 555.06 18.3733 555.407 18.2L593.627 0.259996L594.667 0C595.533 0 596.487 0.433332 597.527 1.3C598.567 1.99333 599.087 2.68667 599.087 3.38V158.34C599.087 164.233 599.607 168.393 600.647 170.82C601.86 173.247 603.767 174.46 606.367 174.46C608.62 174.46 612.173 173.507 617.027 171.6H617.287ZM549.947 179.4C558.613 179.4 566.847 175.76 574.647 168.48V167.18V104C571.527 99.6667 567.973 96.5467 563.987 94.64C560.173 92.56 555.667 91.52 550.467 91.52C541.107 91.52 533.913 94.8133 528.887 101.4C524.033 107.813 521.607 118.3 521.607 132.86C521.607 147.42 524.207 158.86 529.407 167.18C534.607 175.327 541.453 179.4 549.947 179.4Z" fill="#FFB01E"/>
<path d="M649.726 100.62C649.726 105.647 651.459 109.98 654.926 113.62C658.566 117.26 663.766 121.073 670.526 125.06C677.112 128.873 681.966 131.907 685.086 134.16C688.379 136.24 691.326 139.273 693.926 143.26C696.526 147.073 697.826 151.753 697.826 157.3C697.826 163.193 696.352 168.74 693.406 173.94C690.459 179.14 686.039 183.387 680.146 186.68C674.252 189.8 667.232 191.36 659.086 191.36C649.552 191.36 640.539 189.02 632.046 184.34C631.006 183.3 630.486 182.26 630.486 181.22L629.966 155.48C629.966 154.96 630.399 154.7 631.266 154.7C632.306 154.527 632.912 154.613 633.086 154.96C635.859 163.627 640.452 170.993 646.866 177.06C653.279 183.127 659.779 186.16 666.366 186.16C670.006 186.16 672.866 185.033 674.946 182.78C677.199 180.527 678.326 177.233 678.326 172.9C678.326 166.487 676.506 161.46 672.866 157.82C669.226 154.007 663.852 150.107 656.746 146.12C650.679 142.827 646.086 140.14 642.966 138.06C639.846 135.98 637.072 133.033 634.646 129.22C632.219 125.407 631.006 120.727 631.006 115.18C631.006 104.953 634.646 97.5 641.926 92.82C649.206 87.9667 658.132 85.54 668.706 85.54C672.693 85.54 676.246 85.8 679.366 86.32C682.659 86.84 686.299 87.88 690.286 89.44C691.846 89.96 692.626 90.9133 692.626 92.3C692.626 96.6333 692.539 100.013 692.366 102.44L692.106 115.44C692.106 115.96 691.586 116.22 690.546 116.22C689.506 116.22 688.986 115.96 688.986 115.44C688.986 112.147 687.599 108.593 684.826 104.78C682.052 100.793 678.412 97.4133 673.906 94.64C669.572 91.8667 665.066 90.48 660.386 90.48C653.279 90.48 649.726 93.86 649.726 100.62Z" fill="#FFB01E"/>
</svg>
