<svg width="400" height="193" viewBox="0 0 400 193" fill="none" xmlns="http://www.w3.org/2000/svg">
<path d="M26.2652 52.6364C26.2652 58.9213 27.8412 64.5079 30.993 69.3962C34.3199 74.2845 38.3473 78.5617 43.075 82.228C47.8027 85.8942 54.194 90.346 62.2486 95.5835C71.0037 101.17 78.0078 106.058 83.2608 110.248C88.5139 114.438 92.979 119.588 96.6561 125.699C100.333 131.635 102.172 138.531 102.172 146.387C102.172 155.465 99.7204 163.583 94.8175 170.741C89.9147 177.724 83.0857 183.223 74.3307 187.239C65.7507 191.08 56.1201 193 45.4389 193C37.5593 193 29.3295 191.953 20.7495 189.858C12.1696 187.588 6.39121 185.144 3.41448 182.525C2.53898 181.827 1.83857 181.216 1.31326 180.692C0.96306 179.994 0.78796 178.946 0.78796 177.55L0 135.912V135.65C0 134.952 0.437754 134.602 1.31326 134.602C2.18877 134.428 2.71408 134.69 2.88918 135.388C8.14223 146.038 12.6949 154.679 16.5471 161.313C20.5744 167.948 25.5648 173.796 31.5183 178.859C37.6469 183.922 44.5634 186.453 52.2678 186.453C59.2719 186.453 65.0503 184.62 69.6029 180.954C74.1555 177.113 76.4319 170.654 76.4319 161.575C76.4319 153.894 74.6809 147.172 71.1788 141.411C67.8519 135.65 63.737 130.762 58.8342 126.746C53.9313 122.731 47.1899 117.93 38.6099 112.343C30.205 106.931 23.6387 102.305 18.911 98.4641C14.3583 94.6233 10.4185 89.9968 7.09162 84.5848C3.76469 79.1728 2.10122 72.8005 2.10122 65.4681C2.10122 56.2153 4.72774 48.4464 9.98079 42.1615C15.4089 35.7019 22.3255 30.9882 30.7303 28.0203C39.1352 24.8779 47.9779 23.3066 57.2582 23.3066C63.3868 23.3066 69.6029 23.9177 75.9066 25.1398C82.2102 26.1872 87.2882 27.4966 91.1404 29.0678C92.7163 29.7662 93.7669 30.5518 94.2922 31.4247C94.8175 32.123 95.0802 33.0832 95.0802 34.3053V72.8005C95.0802 73.3243 94.6424 73.7607 93.7669 74.1099C92.8914 74.2845 92.3661 74.1099 92.191 73.5862L90.0898 68.6106C85.7123 57.6119 80.5468 48.2718 74.5933 40.5902C68.8149 32.9086 60.6727 29.0678 50.1666 29.0678C43.1626 29.0678 37.3842 31.0755 32.8316 35.0909C28.454 39.1063 26.2652 44.9548 26.2652 52.6364Z" fill="#FFB01E"/>
<path d="M225.789 175.716C226.489 175.716 226.927 176.153 227.102 177.026C227.452 177.724 227.277 178.248 226.577 178.597L199.524 191.429C198.823 191.778 197.948 191.953 196.897 191.953C194.27 191.953 191.644 190.643 189.017 188.024C186.566 185.406 184.815 181.827 183.764 177.288L171.682 183.834C167.13 186.104 162.402 188.024 157.499 189.596C152.596 190.992 148.219 191.691 144.367 191.691C138.763 191.691 134.298 190.294 130.971 187.501C127.819 184.533 126.243 180.343 126.243 174.931C126.243 170.915 127.207 167.686 129.133 165.242C131.234 162.797 134.123 160.79 137.8 159.218C141.652 157.473 147.693 155.203 155.923 152.41L182.714 143.768V123.08C182.714 112.605 181.663 104.924 179.562 100.035C177.461 94.9724 174.046 92.441 169.318 92.441C165.116 92.441 161.789 94.0122 159.338 97.1547C156.886 100.297 155.398 105.447 154.873 112.605C153.822 122.382 148.657 127.27 139.376 127.27C131.146 127.27 127.031 123.691 127.031 116.533C127.031 111.82 130.008 107.106 135.962 102.392C141.915 97.6784 149.094 93.8376 157.499 90.8697C165.904 87.9019 173.258 86.4179 179.562 86.4179C187.792 86.4179 194.446 88.8621 199.524 93.7503C204.777 98.6386 207.403 105.796 207.403 115.224V161.575C207.403 166.638 208.279 170.566 210.03 173.36C211.956 176.153 214.582 177.55 217.909 177.55C220.361 177.55 222.9 176.938 225.526 175.716H225.789ZM182.976 173.098C182.801 171.876 182.714 170.043 182.714 167.598V148.22L168.268 153.457C163.54 155.203 160.126 157.123 158.024 159.218C156.098 161.313 155.135 163.845 155.135 166.813C155.135 170.479 156.186 173.36 158.287 175.455C160.388 177.55 163.015 178.597 166.167 178.597C170.019 178.597 174.484 177.375 179.562 174.931L182.976 173.098Z" fill="#FFB01E"/>
<path d="M235.48 189.858C235.13 189.858 234.955 189.334 234.955 188.286C234.955 187.239 235.13 186.715 235.48 186.715C240.908 186.715 244.586 185.493 246.512 183.049C248.613 180.43 249.663 175.629 249.663 168.646L249.926 35.6146C249.926 29.5043 249.313 25.1398 248.088 22.521C247.037 19.9023 245.111 18.5929 242.309 18.5929C240.033 18.5929 236.706 19.5531 232.328 21.4735H232.066C231.54 21.4735 231.015 21.0371 230.49 20.1642C230.14 19.1167 230.14 18.5056 230.49 18.3311L269.1 0.261869L270.15 0C271.026 0 271.989 0.436454 273.04 1.30936C274.09 2.00769 274.615 2.70602 274.615 3.40435V168.646C274.615 175.629 275.579 180.43 277.505 183.049C279.431 185.493 283.108 186.715 288.536 186.715C289.236 186.715 289.587 187.239 289.587 188.286C289.587 189.334 289.236 189.858 288.536 189.858C284.159 189.858 280.656 189.77 278.03 189.596L262.008 189.334L246.249 189.596C243.622 189.77 240.033 189.858 235.48 189.858Z" fill="#FFB01E"/>
<path d="M398.477 172.574C398.827 172.574 399.177 172.923 399.527 173.621C400.053 174.32 400.14 174.844 399.79 175.193C393.311 181.478 386.745 186.017 380.091 188.81C373.437 191.603 366.17 193 358.291 193C347.259 193 337.716 190.73 329.662 186.191C321.607 181.478 315.478 175.28 311.276 167.598C307.074 159.742 304.972 151.362 304.972 142.459C304.972 132.333 307.599 122.993 312.852 114.438C318.105 105.709 325.284 98.9005 334.389 94.0122C343.495 88.9493 353.651 86.4179 364.857 86.4179C375.713 86.4179 384.031 88.7748 389.809 93.4885C395.587 98.0276 398.477 104.313 398.477 112.343C398.477 117.406 397.514 119.938 395.587 119.938H379.566L332.288 120.461C331.763 123.778 331.5 127.445 331.5 131.46C331.5 146.474 335.002 158.346 342.006 167.075C349.186 175.804 358.991 180.168 371.423 180.168C375.801 180.168 380.354 179.557 385.081 178.335C389.809 177.113 394.099 175.28 397.951 172.836L398.477 172.574ZM355.139 91.6554C349.886 91.6554 345.333 93.7503 341.481 97.9403C337.629 102.13 334.827 107.891 333.076 115.224L370.373 114.438C369.848 99.2497 364.77 91.6554 355.139 91.6554Z" fill="#FFB01E"/>
</svg>
