<svg width="409" height="177" viewBox="0 0 409 177" fill="none" xmlns="http://www.w3.org/2000/svg">
<path d="M118.586 105.9C119.386 105.9 119.786 107.6 119.786 111C119.786 113 119.586 115 119.186 117C118.786 118.8 118.386 119.7 117.986 119.7L110.786 119.4C104.386 119 99.5857 118.8 96.3857 118.8V162.3C96.3857 164.3 95.5857 165.7 93.9857 166.5L74.1857 176.4C72.9857 176.8 72.3857 177 72.3857 177C71.7857 177 71.4857 176.2 71.4857 174.6V117.9C59.2857 117.7 36.3857 117.6 2.78571 117.6C1.78571 117.6 0.985714 117.2 0.385714 116.4C-0.214286 115.6 -0.114286 114.8 0.685714 114L91.8857 1.1998C92.2857 0.799798 92.8857 0.5998 93.6857 0.5998C94.2857 0.5998 94.8857 0.799798 95.4857 1.1998C96.0857 1.3998 96.3857 1.7998 96.3857 2.3998V106.8L118.586 105.9ZM19.8857 107.7C44.6857 107.7 61.8857 107.6 71.4857 107.4V41.3998L18.3857 105.6C17.1857 107 17.6857 107.7 19.8857 107.7Z" fill="url(#paint0_linear)"/>
<path d="M206.416 123.9C194.216 123.9 183.316 121.2 173.716 115.8C164.116 110.4 156.616 103 151.216 93.5998C145.816 83.9998 143.116 73.2998 143.116 61.4998C143.116 49.6998 145.816 39.1998 151.216 29.9998C156.616 20.5998 164.116 13.2998 173.716 8.0998C183.316 2.8998 194.216 0.299805 206.416 0.299805C218.616 0.299805 229.416 2.9998 238.816 8.3998C248.216 13.5998 255.516 20.8998 260.716 30.2998C266.116 39.6998 268.816 50.2998 268.816 62.0998C268.816 73.8998 266.116 84.4998 260.716 93.8998C255.516 103.3 248.116 110.7 238.516 116.1C229.116 121.3 218.416 123.9 206.416 123.9ZM209.416 118.2C219.616 118.2 227.316 113.6 232.516 104.4C237.716 95.1998 240.316 82.3998 240.316 65.9998C240.316 45.9998 236.816 30.9998 229.816 20.9998C222.816 10.9998 214.116 5.9998 203.716 5.9998C193.516 5.9998 185.516 10.7998 179.716 20.3998C174.116 29.7998 171.316 42.4998 171.316 58.4998C171.316 76.0998 174.816 90.4998 181.816 101.7C188.816 112.7 198.016 118.2 209.416 118.2Z" fill="url(#paint1_linear)"/>
<path d="M407.785 105.9C408.585 105.9 408.985 107.6 408.985 111C408.985 113 408.785 115 408.385 117C407.985 118.8 407.585 119.7 407.185 119.7L399.985 119.4C393.585 119 388.785 118.8 385.585 118.8V162.3C385.585 164.3 384.785 165.7 383.185 166.5L363.385 176.4C362.185 176.8 361.585 177 361.585 177C360.985 177 360.685 176.2 360.685 174.6V117.9C348.485 117.7 325.585 117.6 291.985 117.6C290.985 117.6 290.185 117.2 289.585 116.4C288.985 115.6 289.085 114.8 289.885 114L381.085 1.1998C381.485 0.799798 382.085 0.5998 382.885 0.5998C383.485 0.5998 384.085 0.799798 384.685 1.1998C385.285 1.3998 385.585 1.7998 385.585 2.3998V106.8L407.785 105.9ZM309.085 107.7C333.885 107.7 351.085 107.6 360.685 107.4V41.3998L307.585 105.6C306.385 107 306.885 107.7 309.085 107.7Z" fill="url(#paint2_linear)"/>
<defs>
<linearGradient id="paint0_linear" x1="122.267" y1="67.5193" x2="164.232" y2="190.907" gradientUnits="userSpaceOnUse">
<stop stop-color="#00B0AD"/>
<stop offset="1" stop-color="#0099B3"/>
</linearGradient>
<linearGradient id="paint1_linear" x1="122.267" y1="67.5193" x2="164.232" y2="190.907" gradientUnits="userSpaceOnUse">
<stop stop-color="#00B0AD"/>
<stop offset="1" stop-color="#0099B3"/>
</linearGradient>
<linearGradient id="paint2_linear" x1="122.267" y1="67.5193" x2="164.232" y2="190.907" gradientUnits="userSpaceOnUse">
<stop stop-color="#00B0AD"/>
<stop offset="1" stop-color="#0099B3"/>
</linearGradient>
</defs>
</svg>
