<svg width="10" height="12" viewBox="0 0 10 12" fill="none" xmlns="http://www.w3.org/2000/svg">
<path d="M4.33122 1.33268L4.33122 9.23935L1.42455 6.81935C1.14104 6.58371 0.72019 6.62251 0.484548 6.90601C0.248907 7.18952 0.287709 7.61037 0.571215 7.84601L4.57122 11.1793C4.60303 11.2018 4.63646 11.2218 4.67122 11.2393C4.70455 11.2393 4.72455 11.2727 4.75788 11.286C4.83432 11.3162 4.91569 11.3321 4.99788 11.3327C5.08008 11.3321 5.16144 11.3162 5.23788 11.286C5.27122 11.286 5.29122 11.2527 5.32455 11.2393C5.35931 11.2218 5.39273 11.2018 5.42455 11.1793L9.42455 7.84601C9.57691 7.71911 9.66487 7.53097 9.66455 7.33268C9.66485 7.17691 9.6106 7.02596 9.51122 6.90601C9.39818 6.76968 9.23555 6.68392 9.0592 6.66766C8.88285 6.6514 8.70727 6.70597 8.57122 6.81935L5.66455 9.23935L5.66455 1.33268C5.66455 0.964492 5.36607 0.666016 4.99788 0.666016C4.62969 0.666016 4.33122 0.964492 4.33122 1.33268Z" fill="#18214D"/>
</svg>
