<svg width="21" height="17" viewBox="0 0 21 17" fill="none" xmlns="http://www.w3.org/2000/svg">
<path d="M10.0004 17C9.86875 17.0008 9.73829 16.9756 9.61645 16.9258C9.49462 16.876 9.3838 16.8027 9.29036 16.71L1.52036 8.93002C0.545722 7.94519 -0.000976562 6.61558 -0.000976562 5.23002C-0.000976562 3.84445 0.545722 2.51484 1.52036 1.53002C2.50262 0.550528 3.83319 0.000488281 5.22036 0.000488281C6.60753 0.000488281 7.9381 0.550528 8.92036 1.53002L10.0004 2.61002L11.0804 1.53002C12.0626 0.550528 13.3932 0.000488281 14.7804 0.000488281C16.1675 0.000488281 17.4981 0.550528 18.4804 1.53002C19.455 2.51484 20.0017 3.84445 20.0017 5.23002C20.0017 6.61558 19.455 7.94519 18.4804 8.93002L10.7104 16.71C10.6169 16.8027 10.5061 16.876 10.3843 16.9258C10.2624 16.9756 10.132 17.0008 10.0004 17ZM5.22036 2.00002C4.79704 1.9981 4.37754 2.0802 3.98617 2.24155C3.5948 2.40291 3.23933 2.64031 2.94036 2.94002C2.33642 3.54714 1.9974 4.36866 1.9974 5.22502C1.9974 6.08137 2.33642 6.9029 2.94036 7.51002L10.0004 14.58L17.0604 7.51002C17.6643 6.9029 18.0033 6.08137 18.0033 5.22502C18.0033 4.36866 17.6643 3.54714 17.0604 2.94002C16.444 2.35773 15.6283 2.03331 14.7804 2.03331C13.9325 2.03331 13.1167 2.35773 12.5004 2.94002L10.7104 4.74002C10.6174 4.83375 10.5068 4.90814 10.3849 4.95891C10.2631 5.00968 10.1324 5.03581 10.0004 5.03581C9.86835 5.03581 9.73764 5.00968 9.61578 4.95891C9.49392 4.90814 9.38332 4.83375 9.29036 4.74002L7.50036 2.94002C7.20139 2.64031 6.84592 2.40291 6.45455 2.24155C6.06318 2.0802 5.64368 1.9981 5.22036 2.00002Z" fill="#FF5B74"/>
</svg>
