<svg width="24" height="24" viewBox="0 0 24 24" fill="none" xmlns="http://www.w3.org/2000/svg">
<path d="M10.974 16.0109C9.44304 15.8509 8.06204 15.4709 6.88004 14.5399C6.73304 14.4239 6.58104 14.3119 6.44804 14.1829C5.93004 13.6829 5.87804 13.1089 6.28804 12.5189C6.63804 12.0129 7.22604 11.8779 7.83704 12.1689C7.95504 12.2239 8.06704 12.2949 8.17604 12.3699C10.379 13.8939 13.406 13.9359 15.617 12.4389C15.837 12.2689 16.071 12.1309 16.342 12.0609C16.87 11.9249 17.362 12.1199 17.645 12.5849C17.969 13.1149 17.965 13.6349 17.566 14.0459C16.955 14.6789 16.219 15.1359 15.402 15.4549C14.629 15.7569 13.782 15.9089 12.945 16.0089C13.071 16.1479 13.131 16.2159 13.21 16.2959C14.347 17.4459 15.49 18.5929 16.624 19.7469C17.01 20.1409 17.091 20.6279 16.878 21.0859C16.645 21.5859 16.125 21.9149 15.614 21.8799C15.291 21.8569 15.039 21.6949 14.814 21.4679C13.956 20.5979 13.082 19.7439 12.241 18.8579C11.996 18.5999 11.878 18.6489 11.662 18.8729C10.799 19.7679 9.92204 20.6489 9.03804 21.5259C8.64204 21.9189 8.17004 21.9899 7.71004 21.7659C7.22204 21.5259 6.91004 21.0249 6.93504 20.5199C6.95104 20.1779 7.11804 19.9179 7.35104 19.6839C8.47704 18.5519 9.59904 17.4169 10.722 16.2839C10.796 16.2079 10.866 16.1279 10.974 16.0109Z" fill="#EC8225"/>
<path d="M11.907 12.069C9.17503 12.059 6.93503 9.77902 6.95003 7.02302C6.96603 4.23702 9.20803 1.99302 11.967 2.00002C14.731 2.00702 16.95 4.28502 16.937 7.10002C16.922 9.85002 14.667 12.078 11.907 12.069ZM14.39 7.02902C14.3919 6.70697 14.33 6.38774 14.2081 6.08967C14.0862 5.7916 13.9065 5.52056 13.6795 5.29214C13.4525 5.06373 13.1826 4.88243 12.8852 4.75867C12.5879 4.63492 12.2691 4.57114 11.947 4.57102C11.6219 4.5707 11.3001 4.63516 11.0002 4.76064C10.7003 4.88611 10.4284 5.07008 10.2004 5.3018C9.97242 5.53352 9.79288 5.80834 9.67228 6.11022C9.55169 6.4121 9.49245 6.73499 9.49803 7.06002C9.49841 7.38219 9.56252 7.7011 9.68665 7.9984C9.81079 8.29569 9.9925 8.5655 10.2213 8.79229C10.4502 9.01907 10.7216 9.19836 11.02 9.31982C11.3184 9.44128 11.6379 9.50252 11.96 9.50002C12.2822 9.49885 12.6009 9.43388 12.8978 9.30884C13.1947 9.1838 13.4639 9.00119 13.6899 8.77153C13.9158 8.54187 14.094 8.26973 14.2142 7.97082C14.3344 7.67191 14.3941 7.35215 14.39 7.03002V7.02902Z" fill="#EC8225"/>
</svg>
