<svg width="24" height="23" viewBox="0 0 24 23" fill="none" xmlns="http://www.w3.org/2000/svg">
<path d="M12.0001 18.25L4.65255 22.7375L6.65005 14.3625L0.112549 8.7625L8.6938 8.075L12.0001 0.125L15.3063 8.075L23.8888 8.7625L17.3501 14.3625L19.3476 22.7375L12.0001 18.25Z" fill="#FFB01E"/>
</svg>
