<svg width="165" height="164" viewBox="0 0 165 164" fill="none" xmlns="http://www.w3.org/2000/svg">
<path fill-rule="evenodd" clip-rule="evenodd" d="M87.6232 0.072942L86.5176 15.748L85.4834 15.6751L86.5889 0L87.6232 0.072942ZM78.1934 15.8112C77.8298 15.9087 77.4286 15.9663 76.9897 15.9839C76.6228 15.9987 76.2646 15.959 75.9149 15.865C75.5652 15.7709 75.251 15.6178 74.9723 15.4057C74.6936 15.1935 74.4662 14.9162 74.2903 14.5738C74.1145 14.2314 74.0167 13.8156 73.997 13.3263C73.9788 12.8731 74.0914 12.4471 74.3348 12.0482C74.5781 11.6493 74.971 11.2948 75.5134 10.9848C76.0558 10.6747 76.757 10.416 77.6169 10.2085C78.4769 10.001 79.5142 9.85841 80.7289 9.78077L80.6838 8.65848C80.6439 7.66568 80.3991 6.9099 79.9495 6.39113C79.4999 5.87237 78.8543 5.6299 78.0126 5.66373C77.4946 5.68454 77.0568 5.77419 76.6993 5.93268C76.3418 6.09116 76.0406 6.26179 75.7957 6.44457C75.5509 6.62735 75.3522 6.79386 75.1997 6.94411C75.0472 7.09435 74.917 7.17164 74.8091 7.17598C74.73 7.17916 74.6645 7.16378 74.6127 7.12983C74.5609 7.09588 74.5158 7.05086 74.4776 6.99475L74.2815 6.68917C74.8201 6.10547 75.393 5.65731 76.0001 5.34468C76.6073 5.03205 77.3029 4.85997 78.0871 4.82846C78.6626 4.80533 79.1699 4.87682 79.6089 5.04292C80.0479 5.20903 80.4164 5.45723 80.7143 5.78754C81.0122 6.11784 81.2429 6.5229 81.4063 7.00273C81.5697 7.48256 81.6634 8.02103 81.6874 8.61814L81.9684 15.6109L81.5583 15.6274C81.3425 15.6361 81.2054 15.5407 81.1469 15.3413L80.9407 13.9768C80.6573 14.2765 80.3746 14.5472 80.0925 14.7892C79.8104 15.0311 79.5142 15.2375 79.204 15.4085C78.8938 15.5795 78.557 15.7138 78.1934 15.8112ZM68.4977 17.0146C69.0923 16.9037 69.6037 16.7204 70.0321 16.4647C70.4605 16.2091 70.8051 15.9067 71.0659 15.5578C71.3268 15.2089 71.5016 14.821 71.5905 14.3943C71.6793 13.9676 71.6808 13.5242 71.595 13.0641C71.5158 12.6394 71.3635 12.2943 71.1382 12.0287C70.9129 11.7631 70.6449 11.5531 70.3341 11.3987C70.0233 11.2443 69.6781 11.131 69.2984 11.059C68.9188 10.987 68.5361 10.9284 68.1505 10.8831C67.7649 10.8379 67.3846 10.7916 67.0095 10.7444C66.6345 10.6972 66.2962 10.6211 65.9947 10.5162C65.6931 10.4113 65.437 10.265 65.2262 10.0773C65.0154 9.88956 64.8789 9.62936 64.8169 9.2967C64.7667 9.02774 64.779 8.75994 64.8538 8.49331C64.9286 8.22668 65.0603 7.98056 65.2489 7.75494C65.4375 7.52933 65.6791 7.33229 65.9736 7.16384C66.2681 6.99538 66.6065 6.8755 66.9887 6.80421C67.4134 6.725 67.7826 6.7019 68.0964 6.73493C68.4101 6.76795 68.6781 6.8205 68.9003 6.89258C69.1225 6.96467 69.302 7.03372 69.4388 7.09975C69.5756 7.16578 69.683 7.19153 69.7608 7.17701C69.867 7.15721 69.9392 7.09248 69.9773 6.98283L70.1243 6.59286C69.6425 6.28723 69.1349 6.08894 68.6016 5.99799C68.0683 5.90704 67.4796 5.92163 66.8355 6.04178C66.2976 6.14211 65.8272 6.31041 65.4245 6.54665C65.0218 6.7829 64.6945 7.06002 64.4425 7.37802C64.1906 7.69601 64.0155 8.0436 63.9174 8.42078C63.8193 8.79797 63.8053 9.17412 63.8752 9.54925C63.9571 9.98808 64.1104 10.3385 64.335 10.6006C64.5597 10.8626 64.8292 11.0705 65.1435 11.2243C65.4578 11.3781 65.8027 11.4895 66.1781 11.5586C66.5536 11.6278 66.9359 11.6846 67.3251 11.7292C67.7142 11.7738 68.0946 11.8201 68.466 11.868C68.8375 11.9159 69.1765 11.9955 69.4829 12.1068C69.7893 12.2181 70.0492 12.3747 70.2626 12.5765C70.4761 12.7784 70.6158 13.0563 70.6818 13.4102C70.7412 13.7287 70.7393 14.0422 70.676 14.3506C70.6126 14.6591 70.4875 14.9406 70.3007 15.1952C70.1138 15.4498 69.862 15.6707 69.5454 15.8579C69.2287 16.0451 68.8475 16.1803 68.4016 16.2635C67.9273 16.352 67.5186 16.3696 67.1755 16.3164C66.8323 16.2633 66.5388 16.1917 66.295 16.1017C66.0511 16.0116 65.8532 15.9222 65.7011 15.8334C65.549 15.7446 65.427 15.7087 65.335 15.7259C65.2571 15.7404 65.1978 15.7661 65.1571 15.803C65.1164 15.8399 65.0836 15.89 65.0588 15.9532L64.8925 16.3578C65.3885 16.6607 65.9276 16.8806 66.5097 17.0174C67.0919 17.1542 67.7545 17.1532 68.4977 17.0146ZM48.6321 24.2187C48.984 24.0219 49.315 23.7914 49.6251 23.5272C49.9352 23.263 50.2101 22.9876 50.4499 22.7009C50.6896 22.4142 50.8879 22.1197 51.0448 21.8175C51.2016 21.5153 51.3027 21.2278 51.3481 20.9549L50.9343 20.7903C50.8552 20.7521 50.7748 20.7558 50.6931 20.8015C50.6303 20.8367 50.5587 20.9447 50.4785 21.1257C50.3982 21.3067 50.2763 21.5276 50.1127 21.7882C49.9491 22.0488 49.7234 22.3276 49.4358 22.6246C49.1482 22.9215 48.7687 23.2018 48.2974 23.4654C47.7696 23.7606 47.241 23.9366 46.7118 23.9934C46.1826 24.0501 45.6661 23.9822 45.1624 23.7895C44.6587 23.5969 44.1757 23.2792 43.7136 22.8364C43.2515 22.3937 42.8237 21.8204 42.43 21.1166L42.3299 20.9375L49.1543 17.1208C49.2423 17.0716 49.291 17.0113 49.3006 16.9399C49.3102 16.8686 49.2763 16.7638 49.199 16.6255C48.83 15.9657 48.4073 15.4349 47.931 15.0331C47.4547 14.6313 46.9524 14.3491 46.4243 14.1866C45.8962 14.0241 45.355 13.9783 44.8006 14.0491C44.2463 14.1199 43.7052 14.3029 43.1773 14.5981C42.5112 14.9706 41.9808 15.4199 41.5861 15.9459C41.1915 16.4718 40.9286 17.0417 40.7974 17.6553C40.6663 18.269 40.6639 18.9138 40.7903 19.5897C40.9167 20.2656 41.1679 20.9397 41.544 21.6121C41.9903 22.4102 42.4887 23.0616 43.0391 23.5663C43.5895 24.0711 44.1727 24.4317 44.7887 24.6481C45.4048 24.8646 46.0391 24.9367 46.6917 24.8646C47.3443 24.7925 47.9911 24.5772 48.6321 24.2187ZM32.5573 15.4202L41.7884 28.1369L40.9494 28.746L31.7183 16.0292L32.5573 15.4202ZM35.4556 33.5432C35.2402 33.8519 34.9703 34.1543 34.6459 34.4504C34.3746 34.6979 34.075 34.8983 33.7469 35.0515C33.4188 35.2047 33.0798 35.2898 32.73 35.307C32.3801 35.3241 32.0276 35.2583 31.6725 35.1096C31.3175 34.9609 30.9749 34.7057 30.6449 34.3441C30.3391 34.009 30.1509 33.6106 30.0803 33.1486C30.0096 32.6867 30.082 32.1626 30.2973 31.5761C30.5127 30.9897 30.8825 30.3402 31.4069 29.6277C31.9313 28.9152 32.6331 28.1382 33.5125 27.2967L32.7553 26.467C32.0855 25.7331 31.4116 25.3125 30.7336 25.2051C30.0556 25.0976 29.4054 25.3279 28.7832 25.8957C28.4003 26.2452 28.1231 26.5956 27.9516 26.9471C27.7801 27.2986 27.6595 27.6231 27.5899 27.9206C27.5202 28.2181 27.4755 28.4734 27.4555 28.6866C27.4356 28.8997 27.3857 29.0427 27.306 29.1155C27.2475 29.1689 27.1875 29.1993 27.126 29.2066C27.0645 29.214 27.001 29.2086 26.9356 29.1903L26.5889 29.0827C26.6251 28.2893 26.7748 27.5776 27.0381 26.9474C27.3013 26.3173 27.7227 25.7377 28.3024 25.2087C28.7279 24.8204 29.162 24.5484 29.6049 24.3928C30.0477 24.2372 30.4895 24.1899 30.9301 24.2508C31.3707 24.3117 31.808 24.4731 32.242 24.735C32.6759 24.9969 33.0943 25.3486 33.4972 25.79L38.2149 30.9592L37.9117 31.2359C37.7522 31.3815 37.5858 31.3968 37.4127 31.2819L36.3764 30.3707C36.3525 30.7824 36.3105 31.1717 36.2505 31.5384C36.1904 31.9052 36.0968 32.2538 35.9695 32.5844C35.8423 32.9149 35.671 33.2346 35.4556 33.5432ZM28.819 40.695C29.2027 40.2276 29.4763 39.7581 29.6397 39.2868C29.8031 38.8154 29.8723 38.3622 29.8474 37.9273C29.8225 37.4923 29.7068 37.083 29.5002 36.6991C29.2937 36.3153 29.0095 35.9749 28.6478 35.678C28.3139 35.4039 27.9752 35.2377 27.6319 35.1794C27.2885 35.1211 26.9482 35.1328 26.6109 35.2146C26.2736 35.2964 25.9365 35.4318 25.5996 35.621C25.2627 35.8102 24.932 36.0115 24.6077 36.225C24.2834 36.4385 23.9625 36.6479 23.6451 36.853C23.3276 37.0582 23.0197 37.2176 22.7214 37.3314C22.4231 37.4452 22.1329 37.498 21.8507 37.4899C21.5686 37.4819 21.2967 37.3705 21.0351 37.1558C20.8237 36.9822 20.6608 36.7693 20.5464 36.5171C20.4321 36.2649 20.3745 35.9917 20.3737 35.6976C20.3729 35.4036 20.4311 35.0973 20.5481 34.7788C20.6651 34.4604 20.847 34.1509 21.0937 33.8504C21.3678 33.5165 21.6355 33.2612 21.897 33.0846C22.1584 32.908 22.3974 32.7757 22.6138 32.6879C22.8303 32.6001 23.0121 32.5375 23.1593 32.5C23.3066 32.4625 23.4053 32.4131 23.4556 32.3519C23.5241 32.2684 23.5377 32.1725 23.4963 32.064L23.3579 31.6709C22.7924 31.747 22.2763 31.9218 21.8095 32.1954C21.3428 32.4689 20.9015 32.8589 20.4858 33.3654C20.1386 33.7883 19.8869 34.2198 19.7307 34.6597C19.5744 35.0997 19.5022 35.5225 19.5139 35.928C19.5257 36.3336 19.6154 36.7123 19.783 37.0641C19.9506 37.4159 20.1819 37.7129 20.4768 37.9551C20.8219 38.2383 21.1647 38.4079 21.5053 38.4639C21.8459 38.52 22.1859 38.5057 22.5255 38.4211C22.8651 38.3366 23.2008 38.2 23.5326 38.0113C23.8645 37.8226 24.1937 37.6201 24.5203 37.4038C24.8469 37.1876 25.1678 36.9782 25.483 36.7758C25.7982 36.5735 26.1088 36.4163 26.415 36.3043C26.7211 36.1924 27.0209 36.145 27.3142 36.1622C27.6075 36.1793 27.8932 36.3022 28.1715 36.5306C28.4219 36.7361 28.6221 36.9774 28.7721 37.2542C28.9221 37.531 29.0075 37.827 29.0283 38.1422C29.0491 38.4573 28.9985 38.7884 28.8766 39.1355C28.7547 39.4825 28.5499 39.8314 28.2621 40.182C27.956 40.5548 27.6545 40.8313 27.3576 41.0114C27.0607 41.1916 26.79 41.3256 26.5454 41.4136C26.3008 41.5016 26.0918 41.5606 25.9182 41.5904C25.7446 41.6203 25.6282 41.6714 25.5688 41.7437C25.5185 41.8049 25.4897 41.8628 25.4823 41.9172C25.4748 41.9717 25.4819 42.0311 25.5036 42.0955L25.6367 42.5121C26.2113 42.4249 26.7654 42.2463 27.299 41.9764C27.8327 41.7065 28.3393 41.2794 28.819 40.695ZM18.2247 58.9862C18.3679 58.6093 18.4736 58.22 18.5415 57.8183C18.6095 57.4167 18.6433 57.029 18.6429 56.6552C18.6425 56.2815 18.6053 55.9284 18.5314 55.5961C18.4575 55.2637 18.3503 54.9784 18.2098 54.7401L17.7869 54.8798C17.7017 54.9013 17.6425 54.9558 17.6092 55.0433C17.5836 55.1106 17.5982 55.2394 17.653 55.4297C17.7077 55.6199 17.7561 55.8675 17.7981 56.1723C17.8402 56.4772 17.8463 56.8358 17.8167 57.2481C17.787 57.6605 17.6762 58.1191 17.4843 58.6238C17.2694 59.1891 16.9773 59.6635 16.6082 60.047C16.239 60.4304 15.7995 60.7101 15.2897 60.886C14.78 61.0619 14.2058 61.1286 13.5672 61.0861C12.9286 61.0436 12.2324 60.8791 11.4787 60.5925L11.2869 60.5196L14.0655 53.2108C14.1014 53.1166 14.1 53.039 14.0615 52.9782C14.0231 52.9173 13.9298 52.8588 13.7817 52.8025C13.0751 52.5338 12.4102 52.3985 11.787 52.3965C11.1638 52.3945 10.5977 52.5009 10.0885 52.7156C9.57941 52.9303 9.13515 53.2428 8.75576 53.6531C8.37637 54.0635 8.07921 54.5514 7.86429 55.1167C7.59307 55.8301 7.47515 56.5151 7.51051 57.1717C7.54588 57.8283 7.71041 58.4339 8.00411 58.9885C8.2978 59.5431 8.71017 60.0387 9.2412 60.4756C9.77223 60.9124 10.3978 61.2677 11.1179 61.5415C11.9726 61.8664 12.773 62.0455 13.5191 62.0788C14.2651 62.1121 14.9438 62.0139 15.5549 61.784C16.1661 61.5542 16.6986 61.2021 17.1524 60.7276C17.6063 60.2531 17.9637 59.6726 18.2247 58.9862ZM0.250706 62.5837L15.4984 66.3835L15.2477 67.3895L0 63.5898L0.250706 62.5837ZM14.1294 74.6029C14.1634 74.9778 14.1515 75.3829 14.0939 75.8183C14.0457 76.1823 13.9454 76.5286 13.793 76.857C13.6406 77.1855 13.4361 77.4689 13.1794 77.7073C12.9227 77.9457 12.6107 78.1223 12.2432 78.237C11.8758 78.3518 11.4494 78.3771 10.964 78.3129C10.5143 78.2534 10.1138 78.0697 9.76233 77.7617C9.4109 77.4537 9.12878 77.0061 8.916 76.4187C8.70321 75.8313 8.56807 75.0962 8.51057 74.2134C8.45308 73.3307 8.48986 72.2842 8.62093 71.0742L7.50744 70.9268C6.52242 70.7965 5.73593 70.9085 5.14797 71.2628C4.56001 71.6172 4.21078 72.2119 4.10027 73.047C4.03227 73.5609 4.0458 74.0076 4.14086 74.3869C4.23592 74.7663 4.35257 75.0922 4.49082 75.3647C4.62907 75.6372 4.75918 75.8614 4.88116 76.0373C5.00314 76.2132 5.05704 76.3547 5.04287 76.4618C5.03249 76.5403 5.00614 76.6022 4.96384 76.6474C4.92154 76.6927 4.86948 76.7293 4.80765 76.7575L4.47307 76.8984C3.99 76.268 3.64632 75.627 3.44203 74.9753C3.23775 74.3237 3.18708 73.6089 3.29003 72.8309C3.36558 72.2598 3.52271 71.7722 3.76139 71.3681C4.00007 70.9639 4.30759 70.6432 4.68394 70.4062C5.06029 70.1691 5.49881 70.011 5.9995 69.932C6.50019 69.853 7.04676 69.8527 7.63919 69.9311L14.5771 70.8492L14.5233 71.256C14.4949 71.4702 14.3775 71.589 14.1711 71.6125L12.7915 71.5825C13.0383 71.9129 13.2568 72.2378 13.4469 72.5571C13.6371 72.8764 13.7899 73.2034 13.9054 73.5383C14.0208 73.8731 14.0955 74.228 14.1294 74.6029ZM13.6529 84.348C13.6457 83.7432 13.553 83.2079 13.3746 82.742C13.1963 82.2761 12.9576 81.8847 12.6586 81.5678C12.3596 81.2509 12.0076 81.0121 11.6025 80.8513C11.1973 80.6905 10.7608 80.6129 10.2928 80.6184C9.86082 80.6236 9.49467 80.7143 9.19435 80.8907C8.89402 81.0671 8.64111 81.2951 8.43562 81.5748C8.23012 81.8544 8.05932 82.1751 7.9232 82.5367C7.78709 82.8984 7.66364 83.2653 7.55285 83.6374C7.44206 84.0095 7.3312 84.3763 7.22029 84.7376C7.10937 85.099 6.97636 85.4192 6.82127 85.6982C6.66617 85.9773 6.47805 86.2045 6.25692 86.38C6.03579 86.5554 5.75603 86.6451 5.41766 86.6492C5.14408 86.6524 4.88237 86.5943 4.63253 86.4749C4.3827 86.3554 4.16284 86.1834 3.97296 85.9589C3.78308 85.7343 3.63044 85.4625 3.51505 85.1434C3.39965 84.8244 3.33964 84.4705 3.33503 84.0817C3.3299 83.6497 3.37053 83.282 3.45694 82.9786C3.54334 82.6751 3.64112 82.4202 3.75027 82.2136C3.85943 82.0071 3.95828 81.8421 4.04682 81.7187C4.13536 81.5952 4.17916 81.4939 4.17822 81.4147C4.17694 81.3067 4.12556 81.2245 4.02408 81.1681L3.66514 80.9564C3.28133 81.3785 2.99884 81.8445 2.81768 82.3543C2.63652 82.8641 2.54983 83.4466 2.55761 84.1017C2.56411 84.6489 2.64916 85.1411 2.81276 85.5784C2.97637 86.0157 3.19317 86.3857 3.46319 86.6886C3.7332 86.9914 4.04558 87.2235 4.40032 87.3849C4.75506 87.5463 5.12322 87.6247 5.5048 87.6202C5.95116 87.6149 6.32271 87.5241 6.61944 87.3477C6.91617 87.1714 7.16725 86.9416 7.37271 86.6583C7.57816 86.3751 7.74716 86.0545 7.87972 85.6964C8.01228 85.3385 8.13393 84.9716 8.24468 84.5958C8.35542 84.2201 8.46628 83.8534 8.57724 83.4956C8.6882 83.1379 8.8248 82.8176 8.98706 82.5349C9.14931 82.2521 9.3482 82.023 9.58373 81.8474C9.81927 81.6717 10.117 81.5818 10.477 81.5775C10.801 81.5737 11.1095 81.6294 11.4024 81.7447C11.6954 81.8601 11.9513 82.0316 12.17 82.2595C12.3887 82.4873 12.5631 82.7732 12.6932 83.1173C12.8233 83.4614 12.8911 83.8602 12.8965 84.3138C12.9022 84.7962 12.8494 85.2018 12.7381 85.5308C12.6268 85.8597 12.5059 86.1366 12.3753 86.3613C12.2448 86.5861 12.1227 86.7657 12.0091 86.9003C11.8955 87.0349 11.8392 87.1489 11.8404 87.2425C11.8413 87.3217 11.8564 87.3846 11.8858 87.431C11.9152 87.4775 11.9588 87.5183 12.0169 87.5537L12.3869 87.7869C12.7705 87.3503 13.0797 86.857 13.3144 86.307C13.549 85.7569 13.6619 85.104 13.6529 84.348ZM17.3049 105.171C17.1721 104.79 17.0025 104.424 16.7961 104.073C16.5898 103.722 16.3662 103.403 16.1254 103.117C15.8847 102.831 15.6291 102.585 15.3587 102.378C15.0883 102.171 14.8226 102.022 14.5618 101.93L14.3279 102.309C14.2765 102.38 14.2662 102.46 14.2971 102.548C14.3208 102.616 14.4148 102.705 14.5791 102.816C14.7435 102.926 14.9398 103.085 15.1681 103.291C15.3963 103.497 15.6318 103.768 15.8743 104.103C16.1169 104.437 16.3271 104.86 16.5049 105.37C16.7041 105.941 16.7857 106.492 16.7498 107.023C16.7139 107.554 16.5574 108.051 16.2803 108.513C16.0032 108.976 15.6065 109.397 15.0903 109.775C14.5741 110.153 13.9353 110.475 13.1738 110.741L12.9801 110.808L10.4052 103.425C10.372 103.33 10.3211 103.271 10.2525 103.25C10.1838 103.228 10.0748 103.243 9.92519 103.295C9.21136 103.544 8.61526 103.868 8.13691 104.268C7.65855 104.667 7.29355 105.113 7.0419 105.605C6.79025 106.097 6.65121 106.622 6.62477 107.18C6.59832 107.738 6.68469 108.303 6.88385 108.874C7.13518 109.594 7.4856 110.195 7.93512 110.675C8.38464 111.155 8.90021 111.512 9.48184 111.748C10.0635 111.984 10.6981 112.098 11.3856 112.091C12.0732 112.083 12.7807 111.953 13.5081 111.699C14.3715 111.398 15.0995 111.02 15.6921 110.566C16.2847 110.111 16.741 109.599 17.061 109.03C17.3811 108.461 17.5622 107.849 17.6044 107.194C17.6465 106.539 17.5467 105.864 17.3049 105.171ZM5.8584 119.488L19.9781 112.592L20.4332 113.523L6.31343 120.42L5.8584 119.488ZM24.2099 119.757C24.4769 120.023 24.7283 120.34 24.9641 120.711C25.1612 121.021 25.307 121.351 25.4014 121.7C25.4958 122.05 25.5214 122.398 25.478 122.746C25.4346 123.093 25.3091 123.429 25.1015 123.753C24.8939 124.078 24.5835 124.371 24.1705 124.634C23.7878 124.877 23.3628 124.994 22.8957 124.984C22.4285 124.974 21.9246 124.813 21.384 124.5C20.8434 124.187 20.2673 123.71 19.6557 123.071C19.0441 122.432 18.3996 121.607 17.722 120.596L16.7744 121.199C15.9362 121.732 15.4057 122.324 15.1832 122.973C14.9606 123.622 15.0755 124.302 15.5277 125.013C15.8061 125.451 16.1036 125.784 16.4202 126.013C16.7369 126.243 17.0358 126.418 17.3169 126.537C17.598 126.657 17.8418 126.745 18.0483 126.802C18.2548 126.858 18.3871 126.932 18.4451 127.023C18.4876 127.09 18.5072 127.154 18.5039 127.216C18.5006 127.278 18.4843 127.339 18.455 127.4L18.2893 127.724C17.514 127.551 16.8387 127.281 16.2633 126.913C15.6879 126.546 15.1895 126.031 14.7682 125.369C14.4589 124.883 14.2658 124.408 14.1888 123.945C14.1118 123.482 14.1412 123.039 14.277 122.615C14.4129 122.192 14.6471 121.789 14.9799 121.406C15.3126 121.024 15.731 120.672 16.2352 120.351L22.1395 116.594L22.3599 116.94C22.4758 117.123 22.4623 117.289 22.3193 117.44L21.2433 118.304C21.6447 118.398 22.0209 118.507 22.3718 118.629C22.7228 118.751 23.0501 118.904 23.3538 119.086C23.6575 119.268 23.9429 119.492 24.2099 119.757ZM30.1192 127.532C29.7245 127.074 29.309 126.724 28.8726 126.482C28.4363 126.24 28.0017 126.094 27.569 126.044C27.1362 125.994 26.713 126.038 26.2994 126.175C25.8859 126.313 25.5018 126.535 25.1472 126.84C24.8199 127.122 24.598 127.427 24.4817 127.755C24.3653 128.084 24.3185 128.421 24.3412 128.767C24.3639 129.113 24.4396 129.469 24.5681 129.833C24.6967 130.198 24.8383 130.558 24.993 130.914C25.1478 131.27 25.2989 131.622 25.4466 131.97C25.5943 132.318 25.6985 132.649 25.7594 132.962C25.8203 133.276 25.8226 133.571 25.7663 133.847C25.7099 134.124 25.5535 134.372 25.2971 134.593C25.0898 134.772 24.8521 134.896 24.5841 134.965C24.316 135.035 24.037 135.044 23.7471 134.995C23.4573 134.945 23.1655 134.835 22.8719 134.665C22.5782 134.495 22.3045 134.263 22.0508 133.969C21.7688 133.641 21.5633 133.334 21.4341 133.046C21.305 132.758 21.2157 132.5 21.1663 132.272C21.117 132.043 21.0865 131.853 21.0748 131.702C21.0631 131.55 21.0314 131.445 20.9797 131.385C20.9092 131.303 20.817 131.273 20.703 131.295L20.292 131.364C20.27 131.934 20.3537 132.473 20.5431 132.979C20.7325 133.486 21.0411 133.988 21.4687 134.484C21.8258 134.899 22.2077 135.221 22.6143 135.45C23.021 135.68 23.4251 135.823 23.8266 135.881C24.2282 135.939 24.6166 135.916 24.992 135.811C25.3674 135.706 25.6996 135.529 25.9888 135.28C26.327 134.989 26.5529 134.68 26.6666 134.355C26.7802 134.029 26.8245 133.691 26.7994 133.342C26.7743 132.993 26.6973 132.639 26.5684 132.28C26.4395 131.92 26.2965 131.561 26.1394 131.202C25.9823 130.843 25.8312 130.491 25.6858 130.146C25.5405 129.801 25.439 129.468 25.3812 129.147C25.3234 128.826 25.3281 128.523 25.3954 128.237C25.4626 127.951 25.6327 127.69 25.9054 127.455C26.1509 127.244 26.4229 127.088 26.7214 126.988C27.0198 126.888 27.3261 126.854 27.6401 126.888C27.9541 126.921 28.2716 127.028 28.5927 127.208C28.9137 127.387 29.2222 127.649 29.5182 127.993C29.8331 128.358 30.0537 128.703 30.1802 129.026C30.3068 129.349 30.3924 129.639 30.4371 129.895C30.4819 130.151 30.5041 130.367 30.5037 130.543C30.5034 130.719 30.5337 130.843 30.5948 130.914C30.6465 130.974 30.6985 131.012 30.7509 131.029C30.8033 131.046 30.863 131.049 30.9301 131.038L31.3634 130.979C31.3761 130.398 31.2952 129.821 31.1209 129.249C30.9465 128.677 30.6126 128.105 30.1192 127.532ZM46.3121 141.12C45.9658 140.914 45.6008 140.742 45.217 140.605C44.8332 140.469 44.4573 140.368 44.0891 140.304C43.721 140.239 43.3668 140.215 43.0267 140.23C42.6866 140.245 42.387 140.301 42.1279 140.398L42.1921 140.839C42.1985 140.926 42.2419 140.994 42.3223 141.042C42.3841 141.079 42.5135 141.087 42.7104 141.066C42.9073 141.045 43.1595 141.04 43.467 141.052C43.7745 141.064 44.1287 141.12 44.5297 141.22C44.9306 141.321 45.363 141.51 45.8268 141.786C46.3463 142.096 46.7628 142.466 47.0763 142.896C47.3899 143.326 47.5891 143.808 47.6739 144.34C47.7587 144.873 47.7248 145.45 47.5721 146.071C47.4194 146.693 47.1366 147.35 46.7236 148.043L46.6185 148.219L39.9027 144.214C39.8161 144.162 39.7395 144.15 39.6729 144.178C39.6063 144.205 39.5324 144.287 39.4513 144.423C39.0641 145.072 38.8155 145.703 38.7054 146.317C38.5953 146.93 38.6018 147.506 38.7249 148.045C38.848 148.584 39.0787 149.075 39.417 149.52C39.7553 149.965 40.1842 150.342 40.7037 150.652C41.3592 151.043 42.0133 151.278 42.6661 151.357C43.3189 151.436 43.9439 151.379 44.541 151.186C45.1381 150.993 45.6978 150.673 46.2202 150.226C46.7425 149.779 47.201 149.224 47.5955 148.563C48.0639 147.777 48.3791 147.02 48.5414 146.291C48.7036 145.562 48.7246 144.877 48.6043 144.235C48.4841 143.593 48.2296 143.008 47.8411 142.478C47.4525 141.949 46.9429 141.496 46.3121 141.12ZM46.7354 159.447L53.1269 145.091L54.0741 145.513L47.6825 159.868L46.7354 159.447ZM60.9736 147.863C61.3487 147.895 61.7456 147.977 62.1644 148.109C62.5146 148.219 62.8381 148.378 63.1351 148.585C63.4322 148.792 63.6758 149.043 63.866 149.337C64.0562 149.631 64.176 149.969 64.2252 150.351C64.2745 150.733 64.2254 151.157 64.0779 151.624C63.9413 152.057 63.6908 152.419 63.3265 152.712C62.9622 153.005 62.4724 153.205 61.857 153.312C61.2416 153.42 60.4942 153.425 59.6149 153.329C58.7355 153.232 57.7113 153.014 56.5424 152.675L56.204 153.746C55.9047 154.694 55.8785 155.488 56.1254 156.128C56.3723 156.769 56.8974 157.216 57.7007 157.47C58.195 157.626 58.6372 157.69 59.0273 157.662C59.4174 157.635 59.7586 157.576 60.051 157.487C60.3433 157.399 60.5867 157.309 60.7811 157.22C60.9755 157.13 61.1242 157.102 61.2272 157.134C61.3027 157.158 61.3591 157.195 61.3963 157.244C61.4335 157.294 61.4606 157.351 61.4776 157.417L61.5583 157.771C60.8536 158.137 60.1627 158.365 59.4855 158.453C58.8083 158.541 58.0955 158.467 57.3472 158.23C56.7979 158.057 56.345 157.817 55.9884 157.512C55.6318 157.207 55.3694 156.848 55.2012 156.437C55.0331 156.025 54.9535 155.566 54.9626 155.059C54.9717 154.552 55.0663 154.014 55.2463 153.444L57.3545 146.771L57.7459 146.894C57.9518 146.959 58.0485 147.095 58.0358 147.303L57.7668 148.656C58.1351 148.471 58.4929 148.312 58.8404 148.18C59.1878 148.048 59.5365 147.954 59.8863 147.899C60.2361 147.843 60.5985 147.831 60.9736 147.863ZM68.8687 150.014C69.3583 149.918 69.9016 149.919 70.4987 150.015C71.245 150.136 71.869 150.359 72.3707 150.684C72.8724 151.01 73.3054 151.399 73.6698 151.852L73.3767 152.176C73.332 152.227 73.2842 152.263 73.2334 152.284C73.1826 152.305 73.1181 152.309 73.0399 152.297C72.9475 152.282 72.8448 152.207 72.7317 152.072C72.6186 151.937 72.4625 151.786 72.2634 151.619C72.0643 151.452 71.8122 151.285 71.5072 151.119C71.2022 150.953 70.8116 150.832 70.3354 150.755C69.8876 150.682 69.4831 150.681 69.1218 150.75C68.7605 150.819 68.4489 150.942 68.187 151.118C67.9251 151.295 67.7122 151.518 67.5484 151.787C67.3846 152.055 67.2768 152.35 67.2251 152.67C67.1677 153.025 67.2053 153.334 67.3379 153.596C67.4706 153.858 67.6623 154.093 67.9131 154.302C68.1639 154.51 68.456 154.699 68.7894 154.87C69.1229 155.04 69.4652 155.213 69.8164 155.386C70.1676 155.559 70.5083 155.742 70.8383 155.934C71.1683 156.126 71.4552 156.347 71.6991 156.598C71.943 156.849 72.1264 157.136 72.2493 157.459C72.3722 157.781 72.398 158.163 72.3267 158.603C72.2658 158.98 72.1255 159.329 71.9057 159.651C71.686 159.973 71.4038 160.241 71.0592 160.455C70.7146 160.669 70.3129 160.82 69.854 160.906C69.3952 160.992 68.8956 160.992 68.3555 160.904C67.7087 160.8 67.1496 160.615 66.6784 160.349C66.2072 160.083 65.7965 159.725 65.4463 159.274L65.7164 158.957C65.7893 158.867 65.8791 158.83 65.9857 158.847C66.0639 158.86 66.1563 158.921 66.2627 159.029C66.3692 159.137 66.5148 159.263 66.6996 159.406C66.8843 159.549 67.1188 159.689 67.4029 159.826C67.6871 159.963 68.0424 160.066 68.4689 160.135C68.8527 160.197 69.2117 160.199 69.5458 160.14C69.8799 160.08 70.1738 159.977 70.4276 159.828C70.6813 159.679 70.8885 159.492 71.0489 159.267C71.2094 159.041 71.3115 158.793 71.3551 158.523C71.4091 158.189 71.3687 157.898 71.2337 157.65C71.0987 157.402 70.9071 157.178 70.6587 156.977C70.4103 156.777 70.1176 156.591 69.7806 156.42C69.4436 156.248 69.1013 156.076 68.7536 155.903C68.406 155.731 68.0657 155.546 67.7327 155.35C67.3997 155.154 67.113 154.931 66.8727 154.68C66.6324 154.43 66.4511 154.142 66.3287 153.816C66.2064 153.49 66.1797 153.113 66.2487 152.687C66.3233 152.225 66.4746 151.808 66.7024 151.436C66.9302 151.065 67.2259 150.759 67.5893 150.519C67.9527 150.278 68.3792 150.11 68.8687 150.014ZM61.6926 148.742C61.9604 148.826 62.2059 148.945 62.4292 149.099C62.6525 149.252 62.8331 149.44 62.9709 149.661C63.1087 149.882 63.1947 150.135 63.2288 150.422C63.2629 150.708 63.2258 151.023 63.1173 151.366C63.0024 151.73 62.7918 152.02 62.4855 152.237C62.1792 152.454 61.7652 152.593 61.2436 152.654C60.722 152.716 60.0886 152.695 59.3435 152.592C58.5984 152.489 57.7341 152.297 56.7505 152.016L57.5931 149.349C57.9115 149.178 58.2279 149.025 58.5423 148.89C58.8567 148.756 59.1808 148.656 59.5145 148.591C59.8482 148.527 60.1951 148.504 60.5552 148.524C60.9153 148.543 61.2944 148.616 61.6926 148.742ZM46.2438 148.763L40.1216 145.112C39.8266 145.607 39.6316 146.092 39.5366 146.567C39.4415 147.043 39.4397 147.492 39.531 147.916C39.6223 148.339 39.7993 148.728 40.062 149.081C40.3247 149.435 40.6664 149.737 41.0869 149.988C41.563 150.272 42.034 150.452 42.4997 150.529C42.9654 150.605 43.4189 150.586 43.86 150.472C44.3011 150.358 44.7229 150.157 45.1253 149.869C45.5276 149.58 45.9005 149.212 46.2438 148.763ZM24.1962 120.893C24.3469 121.129 24.4585 121.379 24.5308 121.64C24.6032 121.901 24.6211 122.16 24.5847 122.418C24.5482 122.676 24.451 122.926 24.2931 123.167C24.1351 123.408 23.9043 123.626 23.6006 123.819C23.2786 124.024 22.9307 124.111 22.5569 124.08C22.183 124.049 21.7765 123.89 21.3372 123.602C20.8979 123.314 20.4261 122.891 19.9216 122.333C19.4172 121.775 18.8784 121.072 18.3052 120.225L20.6651 118.723C21.0191 118.797 21.3598 118.883 21.6872 118.982C22.0147 119.08 22.327 119.212 22.6241 119.378C22.9211 119.543 23.2014 119.748 23.4648 119.995C23.7282 120.241 23.972 120.54 24.1962 120.893ZM12.3439 110.984L9.99665 104.254C9.45278 104.444 8.99167 104.69 8.61332 104.994C8.23497 105.297 7.94483 105.641 7.74291 106.024C7.541 106.407 7.42714 106.818 7.40133 107.258C7.37553 107.698 7.44325 108.149 7.60448 108.611C7.78704 109.135 8.03222 109.575 8.34002 109.933C8.64781 110.291 9.00743 110.568 9.41886 110.763C9.8303 110.959 10.2828 111.076 10.7763 111.114C11.2698 111.151 11.7923 111.108 12.3439 110.984ZM13.3891 75.4638C13.3523 75.7422 13.2776 76.0046 13.1651 76.2512C13.0526 76.4978 12.8995 76.7081 12.7058 76.8822C12.5121 77.0563 12.2772 77.185 12.001 77.2683C11.7249 77.3516 11.4084 77.3696 11.0515 77.3224C10.6732 77.2723 10.3508 77.1153 10.0844 76.8513C9.81791 76.5872 9.60902 76.2037 9.45769 75.7007C9.30637 75.1977 9.21689 74.5704 9.18926 73.8186C9.16163 73.0669 9.2006 72.1824 9.30617 71.165L12.0792 71.532C12.3031 71.8158 12.5087 72.1008 12.696 72.3871C12.8832 72.6733 13.0376 72.9752 13.159 73.2926C13.2804 73.6101 13.3628 73.9478 13.4062 74.3058C13.4496 74.6638 13.4439 75.0498 13.3891 75.4638ZM10.6865 60.245L13.2195 53.5822C12.6811 53.3775 12.1695 53.2697 11.6845 53.2586C11.1996 53.2476 10.7566 53.3237 10.3556 53.4871C9.95458 53.6504 9.60271 53.8922 9.29999 54.2123C8.99728 54.5324 8.75892 54.9213 8.58494 55.3789C8.38792 55.8971 8.29214 56.3922 8.29758 56.8642C8.30303 57.3361 8.40025 57.7794 8.58924 58.194C8.77823 58.6086 9.04954 58.9891 9.40317 59.3353C9.7568 59.6816 10.1846 59.9848 10.6865 60.245ZM34.3349 33.7251C34.1275 33.9144 33.9014 34.0672 33.6565 34.1834C33.4117 34.2996 33.1591 34.362 32.8988 34.3705C32.6385 34.379 32.3759 34.3262 32.111 34.2122C31.8461 34.0982 31.5923 33.9082 31.3496 33.6423C31.0924 33.3604 30.9468 33.0327 30.9129 32.6591C30.879 32.2855 30.9661 31.8576 31.1741 31.3753C31.3822 30.893 31.7176 30.3553 32.1804 29.7623C32.6433 29.1693 33.2426 28.5176 33.9783 27.8071L35.8639 29.8732C35.8525 30.2346 35.8263 30.585 35.7853 30.9246C35.7444 31.2642 35.6681 31.5945 35.5566 31.9156C35.4451 32.2367 35.2907 32.5482 35.0935 32.8501C34.8962 33.1519 34.6433 33.4436 34.3349 33.7251ZM42.0456 20.3415L48.2667 16.8622C47.9856 16.3594 47.6627 15.9481 47.2982 15.6282C46.9336 15.3082 46.5452 15.082 46.1329 14.9496C45.7206 14.8172 45.2957 14.7765 44.858 14.8273C44.4204 14.8782 43.9879 15.0232 43.5606 15.2622C43.0767 15.5328 42.6853 15.8507 42.3863 16.2159C42.0874 16.5811 41.8771 16.9833 41.7556 17.4224C41.6342 17.8616 41.5977 18.3275 41.6463 18.82C41.6949 19.3125 41.828 19.8197 42.0456 20.3415ZM77.2191 15.2287C76.9385 15.24 76.6671 15.2112 76.405 15.1425C76.1428 15.0738 75.9094 14.9589 75.7048 14.7978C75.5001 14.6366 75.3332 14.4272 75.2039 14.1694C75.0747 13.9115 75.0028 13.6028 74.9883 13.2431C74.973 12.8618 75.0727 12.5173 75.2873 12.2096C75.5019 11.902 75.8441 11.6306 76.3138 11.3955C76.7836 11.1605 77.3864 10.9651 78.1224 10.8095C78.8583 10.6538 79.7365 10.541 80.7569 10.4712L80.8692 13.2661C80.6278 13.5352 80.3821 13.7865 80.1321 14.0199C79.8821 14.2534 79.611 14.457 79.319 14.6309C79.0269 14.8048 78.7082 14.9437 78.3629 15.0476C78.0176 15.1516 77.6363 15.2119 77.2191 15.2287ZM94.2816 17.1484C94.6776 17.224 95.0793 17.2603 95.4867 17.2574C95.8941 17.2545 96.2817 17.2204 96.6497 17.155C97.0177 17.0896 97.3589 16.9916 97.6733 16.861C97.9878 16.7304 98.2501 16.5752 98.4603 16.3954L98.2493 16.0033C98.2133 15.9232 98.1493 15.8743 98.0574 15.8568C97.9866 15.8433 97.8623 15.88 97.6845 15.967C97.5066 16.0541 97.2713 16.1448 96.9784 16.2391C96.6855 16.3335 96.3334 16.402 95.9222 16.4444C95.5109 16.4869 95.0401 16.4576 94.5097 16.3563C93.9156 16.243 93.3976 16.0379 92.9559 15.741C92.5141 15.4442 92.1622 15.06 91.9003 14.5886C91.6384 14.1172 91.4729 13.5633 91.4037 12.9271C91.3345 12.2909 91.3755 11.5767 91.5266 10.7846L91.5651 10.583L99.2457 12.0484C99.3447 12.0673 99.4209 12.0525 99.4741 12.004C99.5273 11.9555 99.5688 11.8535 99.5985 11.6979C99.7402 10.9553 99.7578 10.277 99.6514 9.66297C99.545 9.04895 99.3418 8.50992 99.0418 8.04588C98.7419 7.58185 98.3569 7.1987 97.8868 6.89645C97.4167 6.59419 96.8846 6.38639 96.2905 6.27305C95.5409 6.13002 94.8458 6.133 94.2053 6.28201C93.5648 6.43102 92.9971 6.69835 92.502 7.08401C92.007 7.46967 91.5905 7.96194 91.2527 8.56084C90.9149 9.15974 90.6738 9.83757 90.5294 10.5943C90.358 11.4925 90.3208 12.3119 90.4178 13.0523C90.5147 13.7928 90.7295 14.444 91.0621 15.0059C91.3947 15.5678 91.834 16.0309 92.3802 16.3954C92.9264 16.7598 93.5602 17.0108 94.2816 17.1484ZM91.7305 9.94418L98.7322 11.28C98.8401 10.7142 98.8574 10.1916 98.7839 9.71216C98.7105 9.2327 98.5585 8.80971 98.3279 8.4432C98.0973 8.07669 97.798 7.77222 97.4301 7.52978C97.0623 7.28734 96.6379 7.12024 96.1569 7.02848C95.6124 6.92458 95.1082 6.91635 94.6444 7.00377C94.1806 7.0912 93.7609 7.26402 93.3855 7.52223C93.01 7.78045 92.6826 8.11378 92.4031 8.52224C92.1236 8.93069 91.8994 9.40467 91.7305 9.94418ZM114.132 24.412C114.659 24.7093 115.168 24.8978 115.661 24.9773C116.153 25.0569 116.612 25.0469 117.036 24.9474C117.46 24.8478 117.843 24.6632 118.185 24.3934C118.528 24.1237 118.814 23.7851 119.044 23.3776C119.257 23.0014 119.362 22.6391 119.36 22.2908C119.358 21.9425 119.288 21.6094 119.149 21.2913C119.01 20.9732 118.819 20.6645 118.574 20.3653C118.33 20.066 118.074 19.7751 117.808 19.4925C117.542 19.2099 117.28 18.93 117.023 18.6527C116.767 18.3754 116.556 18.0996 116.393 17.8254C116.229 17.5512 116.127 17.2745 116.086 16.9952C116.046 16.7158 116.108 16.4288 116.275 16.1341C116.409 15.8959 116.591 15.6987 116.82 15.5425C117.048 15.3864 117.307 15.2826 117.597 15.231C117.886 15.1795 118.198 15.1839 118.532 15.2442C118.866 15.3045 119.202 15.4303 119.541 15.6214C119.917 15.8337 120.215 16.0534 120.434 16.2805C120.653 16.5075 120.824 16.72 120.948 16.9181C121.072 17.1162 121.165 17.2845 121.227 17.423C121.29 17.5616 121.355 17.6503 121.424 17.6892C121.518 17.7423 121.615 17.7391 121.715 17.6797L122.078 17.4755C121.906 16.9316 121.644 16.4534 121.294 16.0409C120.944 15.6283 120.484 15.261 119.914 14.9389C119.437 14.6699 118.969 14.4964 118.508 14.4185C118.048 14.3405 117.619 14.3423 117.222 14.4239C116.824 14.5054 116.467 14.6591 116.149 14.885C115.831 15.1108 115.579 15.3899 115.391 15.7222C115.172 16.1109 115.064 16.4778 115.067 16.823C115.071 17.1681 115.144 17.5007 115.286 17.8205C115.428 18.1404 115.62 18.4475 115.863 18.7418C116.106 19.0361 116.363 19.3255 116.632 19.6099C116.901 19.8942 117.163 20.1742 117.417 20.4497C117.67 20.7252 117.879 21.0041 118.042 21.2863C118.205 21.5686 118.303 21.8556 118.337 22.1475C118.371 22.4393 118.299 22.742 118.122 23.0555C117.963 23.3377 117.76 23.5765 117.513 23.772C117.266 23.9676 116.989 24.1028 116.683 24.1776C116.376 24.2524 116.041 24.2598 115.678 24.1996C115.315 24.1394 114.936 23.9979 114.541 23.7749C114.121 23.5378 113.797 23.2885 113.568 23.0271C113.339 22.7658 113.161 22.5222 113.032 22.2965C112.903 22.0708 112.809 21.875 112.749 21.7092C112.69 21.5435 112.62 21.4375 112.538 21.3915C112.469 21.3526 112.407 21.3342 112.352 21.3362C112.297 21.3383 112.24 21.3556 112.18 21.3881L111.793 21.591C111.978 22.142 112.25 22.657 112.607 23.136C112.965 23.615 113.474 24.0404 114.132 24.412ZM122.323 29.7239C121.982 29.5646 121.638 29.3506 121.291 29.0818C121 28.8571 120.752 28.5963 120.544 28.2994C120.337 28.0024 120.195 27.6831 120.118 27.3413C120.041 26.9996 120.045 26.641 120.131 26.2657C120.217 25.8904 120.409 25.5092 120.709 25.122C120.987 24.7632 121.347 24.5094 121.79 24.3606C122.233 24.2117 122.761 24.193 123.376 24.3046C123.991 24.4161 124.694 24.669 125.486 25.0633C126.278 25.4576 127.164 26.0157 128.144 26.7376L128.831 25.8493C129.439 25.0635 129.738 24.3274 129.728 23.641C129.717 22.9546 129.379 22.3537 128.712 21.8381C128.303 21.5209 127.91 21.3079 127.534 21.1993C127.158 21.0906 126.818 21.0275 126.513 21.01C126.208 20.9924 125.949 20.9921 125.735 21.0091C125.522 21.026 125.372 21.0014 125.287 20.9353C125.224 20.8869 125.184 20.833 125.166 20.7736C125.148 20.7143 125.143 20.6509 125.15 20.5833L125.196 20.2232C125.984 20.1228 126.711 20.1482 127.377 20.2993C128.043 20.4505 128.686 20.7663 129.307 21.2465C129.762 21.5991 130.105 21.9801 130.334 22.3897C130.563 22.7993 130.686 23.2263 130.701 23.6709C130.717 24.1154 130.633 24.5739 130.45 25.0464C130.266 25.5189 129.991 25.9914 129.626 26.464L125.343 31.9988L125.018 31.7476C124.847 31.6154 124.804 31.4542 124.887 31.2639L125.607 30.0866C125.197 30.1337 124.807 30.1592 124.435 30.1629C124.063 30.1667 123.704 30.1343 123.356 30.0656C123.009 29.997 122.664 29.8831 122.323 29.7239ZM121.952 28.6513C121.73 28.4795 121.54 28.2829 121.384 28.0616C121.227 27.8404 121.122 27.6023 121.069 27.3473C121.016 27.0923 121.023 26.8245 121.09 26.544C121.157 26.2634 121.301 25.9808 121.521 25.6961C121.754 25.3943 122.052 25.1946 122.415 25.0971C122.777 24.9996 123.213 25.012 123.724 25.1342C124.235 25.2564 124.822 25.4946 125.486 25.8488C126.15 26.203 126.894 26.6816 127.721 27.2845L126.009 29.4967C125.651 29.5475 125.301 29.5818 124.959 29.5997C124.618 29.6176 124.279 29.5991 123.944 29.5444C123.608 29.4896 123.275 29.391 122.944 29.2485C122.613 29.1059 122.282 28.9069 121.952 28.6513ZM139.669 23.7467L128.728 35.0266L127.984 34.3048L138.924 23.0249L139.669 23.7467ZM133.777 41.1029C134.031 41.4156 134.315 41.7019 134.629 41.9618C134.943 42.2217 135.261 42.445 135.585 42.6317C135.909 42.8185 136.233 42.963 136.558 43.0654C136.883 43.1678 137.183 43.2178 137.46 43.2154L137.551 42.7795C137.575 42.695 137.557 42.6164 137.498 42.5438C137.453 42.488 137.334 42.4361 137.142 42.3883C136.95 42.3404 136.711 42.2584 136.426 42.1422C136.141 42.026 135.828 41.8518 135.486 41.6197C135.143 41.3876 134.802 41.0621 134.461 40.6434C134.079 40.1743 133.815 39.684 133.667 39.1725C133.52 38.661 133.498 38.1406 133.601 37.6112C133.704 37.0818 133.934 36.5513 134.29 36.0198C134.647 35.4882 135.137 34.9679 135.763 34.4588L135.922 34.3293L140.858 40.3933C140.922 40.4715 140.99 40.5091 141.062 40.5063C141.134 40.5034 141.231 40.452 141.354 40.352C141.94 39.8747 142.39 39.3668 142.704 38.8284C143.017 38.2899 143.209 37.7465 143.278 37.1983C143.347 36.6501 143.299 36.1091 143.133 35.5752C142.968 35.0414 142.694 34.5399 142.312 34.0709C141.831 33.479 141.297 33.034 140.711 32.7359C140.124 32.4379 139.518 32.2772 138.891 32.2538C138.264 32.2305 137.628 32.3393 136.984 32.5804C136.34 32.8214 135.719 33.1852 135.122 33.6715C134.413 34.2488 133.857 34.852 133.455 35.4812C133.053 36.1104 132.798 36.7471 132.691 37.3912C132.584 38.0353 132.622 38.6726 132.806 39.303C132.989 39.9334 133.313 40.5334 133.777 41.1029ZM136.46 33.9469L140.96 39.4749C141.407 39.1113 141.757 38.7223 142.009 38.3081C142.261 37.8938 142.417 37.4722 142.476 37.0432C142.536 36.6143 142.503 36.1887 142.377 35.7664C142.251 35.3441 142.034 34.9431 141.725 34.5634C141.375 34.1334 140.994 33.8027 140.583 33.5712C140.172 33.3396 139.739 33.2019 139.286 33.158C138.832 33.114 138.367 33.1585 137.89 33.2913C137.414 33.4241 136.937 33.6427 136.46 33.9469ZM144.313 59.4226C144.526 59.9888 144.795 60.4606 145.122 60.838C145.448 61.2153 145.806 61.5021 146.195 61.6983C146.584 61.8944 146.996 61.9991 147.432 62.0124C147.867 62.0257 148.304 61.95 148.742 61.7855C149.147 61.6336 149.46 61.4236 149.682 61.1555C149.905 60.8874 150.065 60.5869 150.163 60.254C150.261 59.9211 150.312 59.5615 150.317 59.1751C150.322 58.7887 150.313 58.4017 150.291 58.0141C150.268 57.6264 150.248 57.2439 150.229 56.8663C150.21 56.4888 150.226 56.1425 150.277 55.8273C150.328 55.5121 150.427 55.2344 150.576 54.9941C150.724 54.7539 150.956 54.5743 151.273 54.4553C151.529 54.3591 151.795 54.3246 152.071 54.3519C152.346 54.3791 152.611 54.466 152.866 54.6125C153.121 54.759 153.358 54.9626 153.575 55.2233C153.792 55.484 153.969 55.7964 154.105 56.1604C154.257 56.5648 154.344 56.9244 154.366 57.2391C154.388 57.5538 154.383 57.8269 154.351 58.0582C154.319 58.2895 154.282 58.4783 154.241 58.6245C154.199 58.7708 154.193 58.881 154.221 58.9551C154.258 59.0562 154.335 59.116 154.449 59.1345L154.859 59.2114C155.076 58.6838 155.183 58.1494 155.18 57.6084C155.177 57.0674 155.06 56.4902 154.83 55.8769C154.637 55.3646 154.39 54.9307 154.087 54.5753C153.784 54.2198 153.454 53.9457 153.097 53.7528C152.74 53.5601 152.368 53.4482 151.979 53.4172C151.591 53.3862 151.218 53.4378 150.861 53.5719C150.443 53.7289 150.124 53.9408 149.905 54.2076C149.686 54.4744 149.528 54.776 149.432 55.1122C149.335 55.4485 149.285 55.8075 149.282 56.1893C149.28 56.571 149.29 56.9574 149.314 57.3484C149.338 57.7394 149.358 58.122 149.376 58.4961C149.393 58.8703 149.374 59.2179 149.318 59.539C149.261 59.8601 149.152 60.1433 148.991 60.3886C148.829 60.6339 148.58 60.8198 148.243 60.9464C147.939 61.0603 147.63 61.1129 147.315 61.1042C147.001 61.0955 146.702 61.0213 146.419 60.8816C146.135 60.7418 145.874 60.5323 145.634 60.2531C145.395 59.9739 145.196 59.6219 145.036 59.1973C144.866 58.7457 144.778 58.3463 144.771 57.9991C144.763 57.6519 144.783 57.3504 144.829 57.0947C144.875 56.8389 144.929 56.6284 144.99 56.4632C145.051 56.298 145.065 56.1716 145.032 56.0839C145.004 56.0098 144.969 55.9559 144.925 55.9222C144.882 55.8885 144.827 55.8649 144.76 55.8515L144.333 55.7582C144.121 56.2993 143.998 56.8684 143.965 57.4654C143.931 58.0625 144.047 58.7149 144.313 59.4226ZM147.17 68.7478C147.011 68.4065 146.885 68.0212 146.792 67.5919C146.715 67.2331 146.692 66.8733 146.724 66.5127C146.757 66.1521 146.853 65.8162 147.014 65.505C147.175 65.1939 147.409 64.9222 147.716 64.6899C148.023 64.4576 148.416 64.2896 148.894 64.186C149.338 64.0899 149.777 64.1274 150.212 64.2983C150.646 64.4693 151.063 64.7952 151.462 65.2761C151.861 65.7569 152.237 66.403 152.589 67.2143C152.942 68.0257 153.261 69.0229 153.547 70.206L154.645 69.9681C155.616 69.7577 156.318 69.3864 156.752 68.8541C157.185 68.3218 157.313 67.644 157.134 66.8207C157.025 66.3141 156.861 65.8983 156.643 65.5735C156.425 65.2486 156.205 64.9813 155.983 64.7716C155.761 64.562 155.563 64.395 155.388 64.2706C155.214 64.1463 155.115 64.0314 155.093 63.9258C155.076 63.8484 155.08 63.7813 155.104 63.7244C155.129 63.6675 155.165 63.6154 155.214 63.568L155.481 63.3223C156.149 63.7522 156.689 64.2393 157.102 64.7834C157.514 65.3276 157.804 65.9832 157.97 66.7502C158.092 67.3131 158.109 67.8251 158.021 68.2862C157.933 68.7473 157.752 69.153 157.478 69.5034C157.204 69.8538 156.845 70.1508 156.4 70.3944C155.956 70.6381 155.442 70.8232 154.858 70.9497L148.018 72.4318L147.931 72.0307C147.885 71.8196 147.956 71.6681 148.142 71.5761L149.45 71.1379C149.106 70.9104 148.791 70.6785 148.504 70.4423C148.217 70.2061 147.963 69.95 147.741 69.6739C147.519 69.3978 147.329 69.0891 147.17 68.7478ZM147.576 67.6875C147.516 67.413 147.498 67.1408 147.521 66.8707C147.543 66.6006 147.616 66.3509 147.739 66.1215C147.863 65.8922 148.04 65.6916 148.272 65.5199C148.504 65.3481 148.796 65.2241 149.147 65.1479C149.52 65.0671 149.877 65.1059 150.217 65.2642C150.557 65.4226 150.883 65.7129 151.196 66.1351C151.508 66.5573 151.805 67.1175 152.085 67.8156C152.365 68.5136 152.627 69.3593 152.872 70.3524L150.138 70.9447C149.832 70.7533 149.542 70.5546 149.269 70.3486C148.996 70.1425 148.748 69.9106 148.527 69.6529C148.305 69.3952 148.113 69.1052 147.951 68.783C147.79 68.4608 147.664 68.0956 147.576 67.6875ZM164.297 75.3565L148.663 76.9411L148.559 75.9095L164.192 74.325L164.297 75.3565ZM148.615 84.8283C148.609 85.2315 148.642 85.6334 148.715 86.0342C148.788 86.435 148.888 86.8111 149.016 87.1623C149.143 87.5136 149.298 87.8329 149.481 88.1202C149.664 88.4076 149.862 88.6393 150.075 88.8155L150.425 88.5402C150.498 88.491 150.535 88.4196 150.536 88.326C150.537 88.254 150.48 88.1378 150.364 87.9776C150.247 87.8173 150.118 87.601 149.974 87.3287C149.831 87.0564 149.703 86.7214 149.59 86.3235C149.478 85.9257 149.426 85.4568 149.435 84.9169C149.444 84.3122 149.557 83.7667 149.774 83.2805C149.99 82.7942 150.308 82.3816 150.728 82.0426C151.147 81.7036 151.664 81.4454 152.279 81.2679C152.894 81.0904 153.605 81.008 154.411 81.0208L154.616 81.024L154.492 88.8423C154.491 88.943 154.518 89.0155 154.575 89.0596C154.632 89.1037 154.74 89.127 154.898 89.1295C155.654 89.1415 156.325 89.0423 156.912 88.832C157.498 88.6216 157.995 88.3288 158.4 87.9536C158.806 87.5784 159.117 87.1333 159.334 86.6182C159.551 86.1032 159.664 85.5433 159.674 84.9386C159.686 84.1755 159.564 83.4913 159.307 82.8859C159.05 82.2806 158.689 81.7672 158.224 81.3458C157.759 80.9244 157.202 80.5987 156.554 80.3688C155.906 80.139 155.197 80.0179 154.427 80.0057C153.513 79.9912 152.699 80.0954 151.986 80.3181C151.273 80.5409 150.669 80.8643 150.172 81.2885C149.676 81.7127 149.295 82.2252 149.03 82.8258C148.765 83.4265 148.627 84.094 148.615 84.8283ZM155.274 81.0776L155.161 88.2047C155.737 88.2139 156.255 88.1411 156.715 87.9863C157.174 87.8316 157.565 87.6091 157.886 87.319C158.208 87.0288 158.456 86.6817 158.632 86.2776C158.807 85.8736 158.899 85.4268 158.907 84.9372C158.916 84.3829 158.837 83.8848 158.671 83.4429C158.506 83.001 158.263 82.6174 157.944 82.2919C157.625 81.9664 157.241 81.701 156.79 81.4959C156.34 81.2907 155.834 81.1513 155.274 81.0776ZM144.904 105.636C144.702 106.207 144.605 106.741 144.612 107.24C144.619 107.739 144.709 108.189 144.88 108.589C145.052 108.989 145.3 109.335 145.626 109.625C145.951 109.916 146.334 110.139 146.775 110.295C147.182 110.438 147.557 110.479 147.9 110.417C148.243 110.355 148.559 110.228 148.848 110.036C149.137 109.844 149.408 109.602 149.66 109.309C149.912 109.016 150.154 108.714 150.387 108.403C150.619 108.092 150.849 107.785 151.077 107.484C151.306 107.183 151.541 106.928 151.783 106.72C152.024 106.511 152.279 106.362 152.547 106.274C152.815 106.185 153.109 106.197 153.428 106.31C153.686 106.401 153.911 106.545 154.105 106.744C154.298 106.942 154.446 107.179 154.547 107.455C154.648 107.731 154.697 108.039 154.696 108.378C154.695 108.717 154.629 109.07 154.5 109.437C154.356 109.844 154.191 110.176 154.006 110.431C153.82 110.686 153.64 110.892 153.467 111.048C153.293 111.204 153.144 111.325 153.018 111.411C152.893 111.496 152.817 111.576 152.79 111.651C152.754 111.753 152.774 111.848 152.85 111.936L153.114 112.258C153.62 111.994 154.045 111.653 154.391 111.237C154.736 110.821 155.018 110.304 155.236 109.686C155.419 109.17 155.508 108.678 155.505 108.211C155.502 107.745 155.426 107.323 155.276 106.945C155.127 106.568 154.914 106.243 154.636 105.969C154.359 105.695 154.04 105.495 153.68 105.368C153.259 105.219 152.879 105.177 152.54 105.24C152.2 105.304 151.886 105.433 151.595 105.628C151.305 105.824 151.036 106.066 150.788 106.357C150.541 106.648 150.3 106.95 150.067 107.265C149.833 107.579 149.603 107.886 149.376 108.183C149.149 108.481 148.91 108.735 148.661 108.944C148.411 109.154 148.145 109.301 147.864 109.385C147.582 109.468 147.272 109.45 146.932 109.331C146.627 109.223 146.356 109.064 146.121 108.855C145.885 108.646 145.704 108.397 145.577 108.108C145.45 107.819 145.385 107.49 145.381 107.122C145.377 106.754 145.451 106.357 145.602 105.929C145.763 105.474 145.952 105.111 146.169 104.841C146.387 104.57 146.596 104.352 146.796 104.186C146.996 104.02 147.172 103.893 147.325 103.806C147.478 103.718 147.57 103.631 147.601 103.542C147.628 103.468 147.635 103.404 147.624 103.35C147.612 103.296 147.585 103.243 147.543 103.19L147.276 102.843C146.765 103.121 146.305 103.478 145.896 103.914C145.486 104.349 145.155 104.924 144.904 105.636ZM141.087 114.631C141.185 114.268 141.336 113.892 141.541 113.503C141.712 113.178 141.926 112.888 142.183 112.633C142.44 112.377 142.73 112.182 143.053 112.048C143.376 111.913 143.73 111.855 144.115 111.875C144.499 111.894 144.908 112.018 145.341 112.247C145.742 112.458 146.055 112.769 146.278 113.18C146.501 113.59 146.61 114.108 146.607 114.733C146.603 115.357 146.475 116.094 146.223 116.942C145.972 117.79 145.575 118.759 145.033 119.849L146.026 120.373C146.905 120.836 147.682 121.003 148.356 120.874C149.031 120.745 149.564 120.308 149.957 119.563C150.199 119.105 150.341 118.681 150.383 118.292C150.425 117.903 150.428 117.557 150.393 117.254C150.358 116.95 150.313 116.695 150.26 116.488C150.206 116.28 150.205 116.129 150.255 116.033C150.292 115.963 150.338 115.914 150.393 115.887C150.449 115.859 150.51 115.842 150.578 115.837L150.941 115.821C151.176 116.58 151.276 117.3 151.242 117.982C151.208 118.664 151.008 119.352 150.642 120.047C150.374 120.556 150.057 120.959 149.694 121.256C149.33 121.552 148.93 121.747 148.495 121.839C148.06 121.931 147.594 121.927 147.097 121.828C146.6 121.729 146.087 121.54 145.558 121.261L139.367 117.998L139.559 117.635C139.659 117.443 139.811 117.373 140.012 117.422L141.296 117.928C141.179 117.532 141.087 117.152 141.019 116.787C140.951 116.421 140.921 116.062 140.928 115.707C140.936 115.353 140.989 114.995 141.087 114.631ZM142.079 114.08C142.21 113.832 142.371 113.611 142.562 113.419C142.753 113.227 142.969 113.082 143.211 112.986C143.453 112.89 143.718 112.85 144.006 112.868C144.294 112.885 144.597 112.978 144.916 113.146C145.253 113.324 145.501 113.583 145.66 113.923C145.818 114.263 145.882 114.695 145.849 115.219C145.817 115.743 145.684 116.363 145.45 117.078C145.215 117.792 144.872 118.609 144.421 119.527L141.947 118.222C141.835 117.878 141.741 117.54 141.664 117.206C141.587 116.873 141.547 116.536 141.543 116.197C141.539 115.857 141.579 115.511 141.662 115.16C141.745 114.81 141.884 114.449 142.079 114.08ZM149.96 130.693L136.967 121.854L137.55 120.997L150.543 129.835L149.96 130.693ZM131.854 127.864C131.589 128.168 131.356 128.497 131.154 128.851C130.952 129.205 130.786 129.557 130.658 129.908C130.53 130.259 130.443 130.603 130.398 130.941C130.353 131.278 130.355 131.583 130.405 131.855L130.85 131.87C130.937 131.879 131.012 131.848 131.073 131.777C131.12 131.723 131.151 131.597 131.165 131.4C131.179 131.202 131.219 130.953 131.285 130.652C131.35 130.352 131.468 130.013 131.638 129.636C131.808 129.259 132.07 128.867 132.424 128.459C132.82 128.002 133.258 127.658 133.736 127.425C134.215 127.192 134.724 127.081 135.263 127.091C135.802 127.102 136.364 127.237 136.949 127.497C137.534 127.757 138.131 128.151 138.74 128.68L138.895 128.814L133.769 134.719C133.703 134.795 133.677 134.868 133.692 134.938C133.708 135.009 133.775 135.096 133.895 135.2C134.465 135.695 135.043 136.051 135.627 136.268C136.212 136.484 136.78 136.579 137.332 136.553C137.884 136.527 138.408 136.387 138.906 136.132C139.404 135.878 139.851 135.522 140.247 135.065C140.747 134.489 141.094 133.887 141.287 133.258C141.48 132.629 141.534 132.004 141.449 131.382C141.365 130.76 141.148 130.153 140.8 129.56C140.452 128.967 139.987 128.418 139.406 127.913C138.715 127.313 138.025 126.87 137.336 126.581C136.647 126.293 135.977 126.152 135.324 126.157C134.671 126.162 134.05 126.309 133.46 126.598C132.87 126.888 132.335 127.309 131.854 127.864ZM139.364 129.278L134.691 134.661C135.126 135.038 135.57 135.316 136.021 135.493C136.472 135.671 136.915 135.752 137.347 135.737C137.78 135.721 138.194 135.616 138.588 135.419C138.983 135.223 139.34 134.94 139.661 134.57C140.025 134.152 140.285 133.72 140.443 133.275C140.6 132.83 140.661 132.381 140.627 131.926C140.592 131.472 140.469 131.021 140.256 130.574C140.043 130.127 139.746 129.695 139.364 129.278ZM115.628 141.402C115.108 141.71 114.69 142.057 114.375 142.444C114.06 142.831 113.839 143.233 113.713 143.65C113.588 144.067 113.556 144.491 113.619 144.922C113.681 145.354 113.831 145.771 114.069 146.174C114.289 146.546 114.55 146.818 114.853 146.991C115.155 147.163 115.479 147.269 115.824 147.308C116.169 147.346 116.532 147.335 116.913 147.272C117.295 147.21 117.674 147.134 118.052 147.045C118.43 146.956 118.803 146.869 119.172 146.785C119.54 146.701 119.884 146.657 120.203 146.652C120.523 146.648 120.813 146.698 121.076 146.802C121.338 146.906 121.555 147.104 121.727 147.395C121.866 147.631 121.946 147.887 121.967 148.163C121.988 148.439 121.949 148.715 121.849 148.992C121.749 149.268 121.589 149.536 121.37 149.795C121.151 150.054 120.874 150.283 120.539 150.48C120.167 150.7 119.828 150.848 119.522 150.924C119.216 151.001 118.946 151.043 118.713 151.051C118.479 151.06 118.287 151.056 118.136 151.041C117.985 151.026 117.875 151.038 117.807 151.078C117.714 151.133 117.668 151.219 117.67 151.335L117.665 151.752C118.222 151.874 118.767 151.887 119.299 151.79C119.832 151.693 120.38 151.478 120.944 151.144C121.415 150.866 121.799 150.547 122.097 150.187C122.395 149.828 122.607 149.455 122.735 149.07C122.863 148.685 122.909 148.299 122.872 147.911C122.835 147.523 122.72 147.164 122.526 146.836C122.299 146.451 122.035 146.175 121.734 146.005C121.433 145.836 121.109 145.733 120.761 145.696C120.413 145.659 120.051 145.672 119.674 145.735C119.298 145.799 118.919 145.876 118.538 145.968C118.157 146.059 117.784 146.145 117.419 146.227C117.053 146.31 116.707 146.351 116.381 146.351C116.055 146.351 115.758 146.293 115.488 146.176C115.218 146.06 114.992 145.846 114.809 145.536C114.644 145.257 114.539 144.962 114.493 144.651C114.447 144.339 114.468 144.032 114.557 143.729C114.645 143.425 114.806 143.132 115.04 142.848C115.273 142.563 115.585 142.306 115.976 142.075C116.391 141.83 116.769 141.673 117.11 141.606C117.45 141.538 117.751 141.505 118.01 141.507C118.27 141.508 118.487 141.524 118.66 141.555C118.834 141.587 118.96 141.579 119.041 141.531C119.109 141.491 119.156 141.446 119.182 141.398C119.207 141.349 119.221 141.291 119.223 141.223L119.241 140.786C118.671 140.671 118.089 140.649 117.495 140.719C116.902 140.79 116.279 141.018 115.628 141.402ZM106.93 145.843C107.239 145.627 107.596 145.436 108.003 145.27C108.343 145.131 108.693 145.046 109.054 145.015C109.415 144.984 109.762 145.021 110.097 145.125C110.431 145.23 110.739 145.413 111.021 145.675C111.304 145.936 111.537 146.294 111.723 146.747C111.894 147.167 111.934 147.606 111.841 148.064C111.749 148.522 111.5 148.989 111.096 149.466C110.692 149.942 110.121 150.424 109.383 150.913C108.646 151.401 107.719 151.889 106.604 152.376L107.029 153.416C107.405 154.336 107.893 154.963 108.493 155.297C109.093 155.631 109.782 155.639 110.562 155.32C111.042 155.124 111.423 154.89 111.705 154.619C111.987 154.348 112.212 154.085 112.379 153.83C112.547 153.574 112.677 153.35 112.769 153.157C112.861 152.964 112.957 152.847 113.057 152.806C113.131 152.776 113.197 152.768 113.258 152.782C113.318 152.796 113.376 152.823 113.431 152.863L113.719 153.083C113.412 153.816 113.027 154.432 112.562 154.933C112.098 155.434 111.503 155.833 110.777 156.131C110.244 156.349 109.742 156.454 109.273 156.448C108.804 156.442 108.373 156.334 107.98 156.125C107.587 155.916 107.232 155.614 106.915 155.219C106.598 154.824 106.326 154.349 106.1 153.796L103.45 147.319L103.83 147.163C104.03 147.082 104.191 147.124 104.314 147.292L104.974 148.504C105.138 148.126 105.311 147.775 105.494 147.451C105.677 147.128 105.885 146.833 106.118 146.566C106.351 146.299 106.622 146.058 106.93 145.843ZM108.045 146.058C108.305 145.952 108.57 145.886 108.84 145.861C109.11 145.836 109.368 145.865 109.615 145.946C109.863 146.028 110.091 146.168 110.301 146.366C110.51 146.565 110.683 146.83 110.819 147.164C110.964 147.517 110.988 147.875 110.891 148.237C110.794 148.599 110.565 148.971 110.203 149.352C109.842 149.734 109.342 150.123 108.703 150.52C108.065 150.918 107.278 151.323 106.342 151.737L105.283 149.148C105.418 148.813 105.564 148.493 105.719 148.188C105.874 147.883 106.06 147.599 106.275 147.336C106.49 147.073 106.742 146.834 107.031 146.618C107.321 146.403 107.658 146.216 108.045 146.058ZM103.392 163.858L99.1221 148.735L100.12 148.453L104.389 163.576L103.392 163.858ZM91.3403 150.043C90.942 150.106 90.5516 150.208 90.1692 150.348C89.7868 150.489 89.4336 150.652 89.1094 150.838C88.7851 151.024 88.4972 151.231 88.2454 151.461C87.9936 151.69 87.7992 151.924 87.6621 152.165L87.9933 152.462C88.0543 152.526 88.131 152.55 88.2235 152.535C88.2946 152.524 88.3991 152.448 88.5371 152.306C88.6751 152.164 88.8659 151.999 89.1097 151.811C89.3534 151.623 89.6616 151.44 90.0343 151.261C90.4069 151.082 90.86 150.95 91.3934 150.866C91.9908 150.772 92.5476 150.79 93.0637 150.92C93.5799 151.05 94.0409 151.292 94.4467 151.647C94.8526 152.003 95.1956 152.468 95.4758 153.043C95.756 153.619 95.9589 154.305 96.0844 155.101L96.1164 155.304L88.3926 156.521C88.293 156.537 88.2264 156.577 88.1926 156.64C88.1589 156.704 88.1544 156.814 88.1791 156.97C88.2968 157.717 88.5095 158.362 88.8173 158.903C89.125 159.445 89.4984 159.884 89.9376 160.219C90.3768 160.555 90.8686 160.785 91.4132 160.911C91.9578 161.036 92.5288 161.052 93.1262 160.958C93.8801 160.839 94.5333 160.601 95.0857 160.244C95.638 159.887 96.082 159.444 96.4175 158.914C96.753 158.383 96.9785 157.779 97.094 157.101C97.2095 156.424 97.2072 155.704 97.0873 154.943C96.9449 154.04 96.7029 153.256 96.3613 152.592C96.0198 151.928 95.5975 151.388 95.0945 150.971C94.5916 150.555 94.0215 150.268 93.3843 150.109C92.747 149.951 92.0657 149.929 91.3403 150.043ZM96.1763 155.961L89.1353 157.071C89.2249 157.64 89.3854 158.138 89.6166 158.564C89.8478 158.991 90.1339 159.337 90.4748 159.604C90.8157 159.871 91.2003 160.057 91.6285 160.161C92.0567 160.264 92.5126 160.278 92.9962 160.202C93.5438 160.116 94.0211 159.953 94.4281 159.714C94.835 159.475 95.1715 159.17 95.4375 158.8C95.7036 158.43 95.8991 158.006 96.024 157.527C96.149 157.048 96.1998 156.526 96.1763 155.961Z" fill="#FF5B74"/>
</svg>
