<svg width="227" height="222" viewBox="0 0 227 222" fill="none" xmlns="http://www.w3.org/2000/svg">
<path fill-rule="evenodd" clip-rule="evenodd" d="M115.247 13.1135L114.5 20.4086L113.057 20.2608L115.13 0L115.927 0.0815951C116.178 0.107254 116.311 0.247481 116.325 0.502277L116.223 2.83251C116.978 1.99777 117.828 1.36033 118.775 0.920215C119.722 0.480097 120.747 0.316488 121.85 0.429387C123.685 0.61721 125.051 1.40047 125.949 2.77918C126.846 4.15789 127.165 6.12075 126.904 8.66776C126.792 9.76077 126.545 10.7665 126.162 11.6848C125.779 12.6032 125.274 13.3823 124.646 14.0223C124.018 14.6622 123.28 15.1415 122.432 15.4599C121.583 15.7784 120.633 15.8838 119.58 15.776C118.567 15.6724 117.709 15.397 117.005 14.9501C116.301 14.5031 115.715 13.8909 115.247 13.1135ZM105.586 14.7695C104.763 15.1931 103.813 15.4438 102.737 15.5218C101.662 15.5999 100.686 15.4887 99.8102 15.1884C98.9344 14.888 98.178 14.4224 97.541 13.7915C96.9041 13.1605 96.398 12.3836 96.0228 11.4608C95.6477 10.538 95.4174 9.48849 95.3321 8.31222C95.2468 7.13595 95.3231 6.06167 95.5608 5.08937C95.7986 4.11707 96.1871 3.2728 96.7264 2.55656C97.2657 1.84032 97.9468 1.26792 98.7697 0.83936C99.5926 0.410801 100.542 0.157519 101.618 0.079514C102.693 0.00150876 103.669 0.115183 104.545 0.420537C105.422 0.725891 106.176 1.19422 106.808 1.82553C107.44 2.45684 107.943 3.23641 108.319 4.16424C108.694 5.09207 108.925 6.14412 109.01 7.32039C109.095 8.49666 109.019 9.56843 108.781 10.5357C108.543 11.503 108.157 12.3446 107.622 13.0604C107.088 13.7763 106.409 14.346 105.586 14.7695ZM81.4926 17.1238L83.3019 24.2303L81.8952 24.5884L76.8704 4.85136L77.647 4.65365C77.8912 4.59148 78.0639 4.67752 78.1651 4.91178L78.8715 7.13471C79.2924 6.09141 79.8716 5.20024 80.6092 4.46117C81.3468 3.72211 82.2528 3.2158 83.3274 2.94224C85.115 2.48713 86.6673 2.75241 87.9844 3.73808C89.3015 4.72376 90.2759 6.45718 90.9076 8.93835C91.1787 10.0031 91.2925 11.0325 91.2491 12.0265C91.2058 13.0205 90.9994 13.9259 90.6301 14.7428C90.2608 15.5598 89.7327 16.2637 89.0458 16.8546C88.359 17.4456 87.5027 17.8716 86.477 18.1327C85.4904 18.3839 84.5897 18.4208 83.7748 18.2434C82.9599 18.066 82.1992 17.6928 81.4926 17.1238ZM57.5391 30.4327L52.3022 22.2236C52.1259 21.535 52.0108 20.9 51.9568 20.3187C51.9028 19.7374 51.931 19.2053 52.0414 18.7223C52.1518 18.2394 52.3495 17.7995 52.6343 17.4026C52.9191 17.0057 53.308 16.65 53.8009 16.3356C54.1408 16.1187 54.4338 15.9736 54.68 15.9003C54.9261 15.8269 55.1002 15.7578 55.2022 15.6927C55.3211 15.6168 55.3585 15.4973 55.3143 15.3342L54.8795 14.4279C54.6082 14.4336 54.3301 14.4944 54.0454 14.6103C53.7606 14.7262 53.4865 14.8682 53.2231 15.0362C52.7302 15.3507 52.3293 15.711 52.0206 16.1172C51.7118 16.5234 51.4832 16.9711 51.335 17.4603C51.1867 17.9494 51.116 18.4758 51.1228 19.0394C51.1296 19.6029 51.2006 20.2063 51.3358 20.8493L49.5471 18.2421C49.4379 18.1085 49.3346 18.0309 49.2372 18.0094C49.1398 17.9878 49.0188 18.0231 48.8743 18.1153L48.2242 18.53L56.3153 31.2134L57.5391 30.4327ZM47.2772 38.7217C47.7471 38.3252 48.1412 37.917 48.4594 37.4969C48.7776 37.0768 49.0347 36.639 49.2307 36.1835C49.4267 35.728 49.5767 35.2454 49.6807 34.7356C49.7848 34.2258 49.8647 33.6836 49.9206 33.1089L51.3206 34.4401C51.5566 34.6103 51.7901 34.598 52.0212 34.403L52.4604 34.0325L46.1426 26.5437C45.6031 25.9042 45.037 25.3895 44.4441 24.9994C43.8513 24.6093 43.2484 24.3597 42.6353 24.2505C42.0222 24.1413 41.4017 24.1834 40.7737 24.3769C40.1457 24.5704 39.5235 24.9272 38.9071 25.4472C38.0673 26.1557 37.4461 26.9435 37.0435 27.8106C36.6409 28.6778 36.3927 29.6653 36.2987 30.7733L36.7779 30.9427C36.8684 30.9718 36.9569 30.9829 37.0433 30.9759C37.1298 30.9689 37.2153 30.9297 37.3001 30.8582C37.4157 30.7607 37.4932 30.5634 37.5327 30.2663C37.5722 29.9692 37.6488 29.6145 37.7625 29.2021C37.8761 28.7897 38.0625 28.3423 38.3216 27.86C38.5807 27.3777 38.9876 26.9025 39.5423 26.4345C40.4437 25.6741 41.3657 25.3875 42.3084 25.5747C43.251 25.762 44.1709 26.3872 45.0678 27.4504L46.0818 28.6523C44.8057 29.7816 43.7815 30.8303 43.0091 31.7984C42.2367 32.7666 41.6839 33.655 41.3506 34.4636C41.0174 35.2723 40.8875 36.0016 40.9612 36.6517C41.0348 37.3017 41.2764 37.8694 41.6858 38.3548C42.1278 38.8787 42.5931 39.2544 43.0817 39.4818C43.5703 39.7092 44.0598 39.8205 44.5502 39.8156C45.0406 39.8107 45.5195 39.71 45.9868 39.5136C46.4541 39.3172 46.8842 39.0532 47.2772 38.7217ZM25.2792 28.7414L41.2469 43.8746L40.2484 44.9281L24.2807 29.7949L25.2792 28.7414ZM33.132 54.429C33.7971 53.5292 34.1899 52.5567 34.3107 51.5116C34.4314 50.4664 34.3499 49.4065 34.0662 48.3319L35.9466 49.5526C36.1813 49.676 36.3736 49.6363 36.5234 49.4337L36.9997 48.7892L24.9014 39.8469L24.0386 41.0142L33.1336 47.7367C33.4455 48.807 33.5505 49.831 33.4484 50.8084C33.3464 51.7859 33.0048 52.6678 32.4236 53.4541C31.6387 54.516 30.7323 55.0682 29.7044 55.1106C28.6766 55.1531 27.5952 54.7549 26.4603 53.9161L18.7271 48.2002L17.8644 49.3675L25.5976 55.0834C26.3028 55.6047 26.998 55.9869 27.6831 56.2301C28.3683 56.4733 29.0322 56.5755 29.6751 56.5367C30.3179 56.4979 30.9305 56.3052 31.5127 55.9584C32.0949 55.6116 32.6347 55.1018 33.132 54.429ZM27.69 73.9372L21.123 70.6738C22.0151 70.5093 22.7942 70.1761 23.4601 69.6741C24.1261 69.1721 24.6856 68.4652 25.1386 67.5535C25.6097 66.6057 25.8452 65.6787 25.8452 64.7726C25.8453 63.8666 25.6561 63.0071 25.2777 62.1944C24.8993 61.3816 24.3475 60.6347 23.6223 59.9535C22.8971 59.2723 22.0425 58.6872 21.0586 58.1983C18.7658 57.0589 16.8163 56.667 15.2101 57.0225C13.6039 57.3781 12.3903 58.3818 11.5694 60.0337C11.076 61.0267 10.8688 62.0437 10.948 63.0848C11.0272 64.126 11.325 65.1463 11.8413 66.1458L9.69557 65.2314C9.45196 65.1554 9.27408 65.2302 9.16193 65.4559L8.80531 66.1735L27.044 75.2371L27.69 73.9372ZM19.0105 83.2174C19.312 82.1818 19.4076 81.2044 19.2973 80.2852C19.187 79.3659 18.8894 78.5312 18.4044 77.7811C17.9194 77.031 17.265 76.3759 16.4412 75.8158C15.6174 75.2558 14.6393 74.8109 13.507 74.4812C12.3746 74.1515 11.3082 74.0011 10.3077 74.03C9.30713 74.0589 8.40093 74.2597 7.58906 74.6322C6.77719 75.0047 6.07558 75.5485 5.48422 76.2634C4.89286 76.9784 4.44642 77.8536 4.14492 78.8892C3.84341 79.9248 3.75023 80.9029 3.86537 81.8235C3.98052 82.7442 4.27988 83.582 4.76348 84.3369C5.24707 85.0919 5.90318 85.7501 6.73182 86.3116C7.56046 86.8731 8.54095 87.3186 9.67329 87.6483C10.8056 87.978 11.8696 88.1277 12.8653 88.0974C13.861 88.0671 14.7655 87.8632 15.5788 87.4859C16.3921 87.1085 17.092 86.5616 17.6785 85.8453C18.265 85.1289 18.709 84.2529 19.0105 83.2174ZM20.4058 104.474L13.1139 103.697C13.8932 103.233 14.5078 102.65 14.9577 101.947C15.4076 101.245 15.6865 100.388 15.7943 99.3756C15.9064 98.3231 15.805 97.3721 15.4901 96.5225C15.1751 95.673 14.6989 94.9329 14.0616 94.3024C13.4242 93.6719 12.6472 93.1633 11.7304 92.7768C10.8136 92.3902 9.80899 92.1387 8.71645 92.0223C6.17054 91.7511 4.20638 92.0613 2.82397 92.9531C1.44155 93.8448 0.652635 95.2079 0.457214 97.0421C0.339747 98.1447 0.499111 99.1703 0.935303 100.119C1.3715 101.068 2.0054 101.921 2.83701 102.678L0.507222 102.567C0.252368 102.58 0.111593 102.712 0.0848961 102.963L0 103.76L20.252 105.918L20.4058 104.474ZM7.65244 132.81L17.1784 130.792L17.4792 132.212L2.7612 135.329L2.60144 134.575C2.56594 134.407 2.57539 134.281 2.6298 134.198C2.68421 134.114 2.79315 134.045 2.95661 133.99L6.0262 133.231C5.37663 133.132 4.78684 132.986 4.25682 132.795C3.7268 132.603 3.25888 132.352 2.85305 132.041C2.44723 131.73 2.10843 131.359 1.83666 130.927C1.56489 130.495 1.36844 129.993 1.24732 129.421C1.18258 129.116 1.146 128.809 1.13758 128.502C1.12917 128.194 1.16998 127.913 1.26 127.657L2.26133 127.568C2.42955 127.584 2.52828 127.661 2.55752 127.799C2.58258 127.918 2.58618 128.105 2.56831 128.361C2.55045 128.617 2.58329 128.943 2.66682 129.337C2.78795 129.909 2.98425 130.398 3.25573 130.804C3.52721 131.21 3.8696 131.55 4.28291 131.823C4.69622 132.096 5.18447 132.31 5.74767 132.463C6.31087 132.617 6.94579 132.733 7.65244 132.81ZM20.619 141.789C20.901 142.234 21.1454 142.746 21.3521 143.325C21.525 143.809 21.6215 144.305 21.6418 144.811C21.6621 145.318 21.5886 145.802 21.4214 146.263C21.2542 146.724 20.9785 147.143 20.5944 147.521C20.2102 147.899 19.6953 148.203 19.0498 148.434C18.4517 148.647 17.8354 148.675 17.2007 148.516C16.5661 148.357 15.9284 147.98 15.2878 147.385C14.6471 146.789 14.0086 145.96 13.3724 144.898C12.7362 143.835 12.1127 142.508 11.502 140.918L10.0211 141.446C8.71099 141.914 7.80317 142.557 7.29757 143.374C6.79198 144.191 6.73744 145.155 7.13396 146.266C7.37798 146.949 7.68049 147.497 8.0415 147.909C8.40251 148.32 8.75624 148.652 9.1027 148.902C9.44915 149.153 9.75459 149.349 10.019 149.49C10.2834 149.632 10.4411 149.773 10.4919 149.916C10.5292 150.02 10.5359 150.114 10.5122 150.197C10.4885 150.281 10.4471 150.36 10.3881 150.434L10.0616 150.824C9.05674 150.348 8.21874 149.769 7.54756 149.088C6.87637 148.408 6.35607 147.55 5.98666 146.515C5.71554 145.756 5.59934 145.048 5.63808 144.392C5.67681 143.736 5.8547 143.14 6.17176 142.604C6.48882 142.068 6.93386 141.591 7.50686 141.172C8.07987 140.753 8.76035 140.403 9.54828 140.122L18.7757 136.828L18.9688 137.369C19.0705 137.654 19.0003 137.877 18.7582 138.038L17.0209 138.883C17.5396 139.137 18.0195 139.402 18.4605 139.678C18.9015 139.954 19.3011 140.263 19.659 140.606C20.017 140.95 20.337 141.344 20.619 141.789ZM24.0621 150.761L4.30915 160.446L4.94818 161.749L24.7011 152.064L24.0621 150.761ZM28.8003 159.922C29.7381 160.399 30.5129 161.106 31.1249 162.043C31.5826 162.743 31.8726 163.427 31.995 164.093C32.1175 164.76 32.085 165.401 31.8976 166.017C31.7101 166.633 31.3832 167.22 30.9167 167.778C30.4502 168.335 29.8499 168.854 29.1158 169.334L21.0655 174.594L20.2716 173.379L28.3218 168.119C29.5032 167.347 30.2529 166.472 30.5709 165.493C30.8889 164.515 30.6868 163.473 29.9645 162.368C29.4297 161.549 28.7218 160.922 27.841 160.486C26.9602 160.05 25.9637 159.792 24.8518 159.712L15.3838 165.898L14.5899 164.683L27.1842 156.454L27.6226 157.125C27.7604 157.336 27.7307 157.53 27.5333 157.707L25.7344 159.045C26.8405 159.153 27.8625 159.445 28.8003 159.922ZM42.1683 178.967L47.5171 173.95L48.5101 175.009L33.6547 188.942L33.1065 188.357C32.9341 188.173 32.926 187.98 33.0823 187.779L34.6875 186.087C33.5707 186.222 32.5106 186.145 31.5072 185.856C30.5039 185.567 29.6229 185.019 28.8644 184.21C27.6025 182.864 27.085 181.377 27.3119 179.748C27.5389 178.118 28.5861 176.428 30.4536 174.676C31.255 173.925 32.1014 173.328 32.9927 172.886C33.884 172.444 34.7765 172.187 35.6702 172.116C36.5639 172.045 37.4353 172.167 38.2845 172.483C39.1337 172.799 39.9203 173.343 40.6444 174.115C41.3408 174.858 41.8082 175.629 42.0464 176.428C42.2847 177.227 42.3253 178.073 42.1683 178.967ZM50.5419 184.042C51.4414 184.262 52.3231 184.694 53.1869 185.34C54.0508 185.986 54.7152 186.709 55.1801 187.51C55.6451 188.31 55.9115 189.158 55.9794 190.052C56.0473 190.946 55.9208 191.864 55.5997 192.807C55.2786 193.75 54.765 194.694 54.0588 195.639C53.3527 196.583 52.5913 197.345 51.7747 197.924C50.9581 198.503 50.1115 198.886 49.2348 199.074C48.3582 199.262 47.4686 199.248 46.5661 199.033C45.6636 198.817 44.7804 198.387 43.9166 197.741C43.0527 197.095 42.3898 196.37 41.9279 195.565C41.466 194.761 41.2031 193.913 41.1392 193.022C41.0753 192.131 41.2054 191.212 41.5295 190.265C41.8536 189.318 42.3688 188.372 43.0749 187.427C43.7811 186.483 44.5409 185.723 45.3545 185.148C46.168 184.573 47.0111 184.191 47.8838 184C48.7564 183.809 49.6425 183.823 50.5419 184.042ZM73.5873 191.5L70.2964 198.053C70.1357 197.16 69.8057 196.38 69.3065 195.712C68.8073 195.044 68.1028 194.481 67.1929 194.024C66.2471 193.549 65.3211 193.31 64.4151 193.306C63.509 193.302 62.6488 193.488 61.8344 193.863C61.0201 194.238 60.2708 194.786 59.5866 195.509C58.9024 196.231 58.3138 197.083 57.8207 198.065C56.6718 200.353 56.2717 202.301 56.6205 203.909C56.9693 205.516 57.968 206.734 59.6165 207.562C60.6073 208.06 61.6235 208.271 62.665 208.196C63.7064 208.121 64.728 207.828 65.7296 207.316L64.8063 209.457C64.7292 209.701 64.8033 209.879 65.0285 209.992L65.7447 210.352L74.8844 192.151L73.5873 191.5ZM66.9273 195.16C67.738 195.567 68.3761 196.082 68.8416 196.705C69.3071 197.328 69.602 198.155 69.7265 199.188L66.1642 206.282C65.185 206.816 64.2198 207.133 63.2685 207.23C62.3171 207.328 61.3955 207.153 60.5038 206.705C59.1255 206.013 58.3034 205.01 58.0375 203.698C57.7715 202.386 58.1407 200.73 59.1449 198.73C59.5882 197.847 60.0955 197.09 60.6669 196.457C61.2382 195.825 61.8567 195.346 62.5221 195.02C63.1876 194.695 63.89 194.537 64.6293 194.547C65.3686 194.558 66.1346 194.762 66.9273 195.16ZM52.508 186.248C53.2265 186.786 53.7622 187.378 54.115 188.026C54.4678 188.673 54.6518 189.361 54.6671 190.09C54.6823 190.819 54.5378 191.576 54.2336 192.362C53.9294 193.147 53.4756 193.944 52.872 194.751C52.2745 195.551 51.6405 196.209 50.97 196.727C50.2995 197.246 49.6111 197.603 48.9048 197.798C48.1985 197.994 47.4833 198.016 46.7593 197.865C46.0353 197.714 45.3141 197.37 44.5956 196.833C43.877 196.296 43.3429 195.701 42.9931 195.05C42.6433 194.398 42.4623 193.706 42.45 192.973C42.4378 192.24 42.5873 191.48 42.8986 190.694C43.2098 189.907 43.6642 189.114 44.2617 188.315C44.8652 187.507 45.4988 186.845 46.1622 186.328C46.8257 185.811 47.5091 185.456 48.2123 185.265C48.9156 185.073 49.6278 185.055 50.3487 185.21C51.0697 185.365 51.7894 185.711 52.508 186.248ZM40.0034 175.089C40.624 175.751 41.0454 176.454 41.2675 177.2C41.4897 177.945 41.4811 178.824 41.2419 179.836L35.4519 185.266C34.3484 185.43 33.3334 185.394 32.4068 185.158C31.4802 184.921 30.6755 184.439 29.9928 183.711C28.9378 182.586 28.5117 181.362 28.7146 180.038C28.9175 178.715 29.835 177.288 31.4672 175.757C32.1878 175.081 32.9252 174.545 33.6796 174.149C34.4339 173.752 35.1796 173.516 35.9166 173.439C36.6535 173.363 37.3672 173.457 38.0576 173.722C38.748 173.986 39.3966 174.442 40.0034 175.089ZM20.2476 143.334C20.3797 143.705 20.4546 144.079 20.4722 144.458C20.4898 144.837 20.4336 145.197 20.3037 145.538C20.1738 145.879 19.9636 146.189 19.673 146.469C19.3824 146.75 18.9998 146.975 18.5252 147.144C18.022 147.324 17.5201 147.334 17.0194 147.176C16.5186 147.018 16.0132 146.674 15.503 146.144C14.9929 145.614 14.4802 144.89 13.965 143.972C13.4498 143.053 12.9326 141.927 12.4133 140.592L16.1014 139.276C16.5618 139.486 17.0001 139.709 17.4164 139.946C17.8327 140.183 18.218 140.46 18.5722 140.778C18.9265 141.095 19.2451 141.463 19.5282 141.881C19.8112 142.299 20.051 142.784 20.2476 143.334ZM13.8645 101.861C14.284 101.207 14.5418 100.428 14.6379 99.5261C14.7318 98.644 14.6537 97.8551 14.4034 97.1594C14.1532 96.4637 13.7586 95.8616 13.2198 95.3531C12.6809 94.8446 12.0151 94.4341 11.2222 94.1215C10.4293 93.809 9.54175 93.6004 8.55947 93.4957C6.33431 93.2586 4.65423 93.4953 3.51923 94.2056C2.38423 94.9159 1.73504 96.0378 1.57165 97.5714C1.46593 98.5637 1.62595 99.488 2.05171 100.344C2.47747 101.201 3.11276 101.993 3.95761 102.722L11.8509 103.563C12.7738 103.083 13.445 102.516 13.8645 101.861ZM16.8217 85.0289C17.3043 84.4712 17.6709 83.7617 17.9217 82.9004C18.1725 82.039 18.244 81.2436 18.1362 80.514C18.0284 79.7845 17.7614 79.1241 17.3351 78.5328C16.9089 77.9415 16.3372 77.426 15.6201 76.9862C14.903 76.5465 14.0605 76.1857 13.0927 75.9039C12.1346 75.6249 11.2326 75.4778 10.3867 75.4625C9.54073 75.4472 8.77683 75.5738 8.09494 75.8425C7.41305 76.1111 6.82841 76.5236 6.341 77.0798C5.85359 77.636 5.48449 78.3448 5.23371 79.2062C4.98292 80.0676 4.91384 80.8637 5.02648 81.5947C5.13912 82.3256 5.41098 82.9874 5.84208 83.5801C6.27318 84.1728 6.84899 84.6922 7.56952 85.1382C8.29005 85.5842 9.12938 85.9467 10.0875 86.2256C11.0553 86.5074 11.9605 86.6529 12.803 86.6619C13.6455 86.671 14.4052 86.5405 15.0823 86.2705C15.7593 86.0004 16.3391 85.5865 16.8217 85.0289ZM22.465 69.2133C23.086 68.7452 23.5983 68.105 24.002 67.2926C24.3968 66.4982 24.5977 65.7314 24.6049 64.9921C24.6122 64.2527 24.4515 63.551 24.1231 62.8869C23.7946 62.2228 23.313 61.6064 22.6783 61.0377C22.0435 60.469 21.2838 59.9648 20.3992 59.5252C18.3952 58.5294 16.7377 58.1672 15.4265 58.4386C14.1154 58.71 13.1167 59.5363 12.4303 60.9174C11.9862 61.8111 11.8149 62.7334 11.9164 63.6843C12.0179 64.6352 12.3381 65.5991 12.877 66.576L19.9856 70.1086C21.0176 69.9799 21.8441 69.6814 22.465 69.2133ZM45.9078 38.2944C46.2566 38.1452 46.5813 37.9438 46.8818 37.6903C47.3287 37.3133 47.6983 36.9191 47.9907 36.5075C48.2831 36.096 48.5161 35.6687 48.6896 35.2256C48.8631 34.7825 48.9878 34.3245 49.0636 33.8517C49.1395 33.3788 49.1953 32.89 49.2309 32.3852L46.7058 29.392C45.6377 30.3457 44.7638 31.2248 44.084 32.0291C43.4042 32.8334 42.9056 33.5672 42.5882 34.2306C42.2709 34.894 42.1257 35.4879 42.1528 36.0124C42.1798 36.5368 42.3656 37.0033 42.7101 37.4116C43.035 37.7968 43.3797 38.0764 43.7441 38.2504C44.1085 38.4244 44.4729 38.5125 44.8376 38.5148C45.2022 38.5171 45.5589 38.4437 45.9078 38.2944ZM85.9335 17.1009C85.0543 17.3248 84.2348 17.354 83.475 17.1886C82.7152 17.0232 81.95 16.5913 81.1793 15.893L79.2208 8.20035C79.6099 7.15475 80.1318 6.28337 80.7864 5.58623C81.4411 4.88909 82.2519 4.41741 83.219 4.17121C84.7135 3.7907 85.9913 4.00889 87.0522 4.82575C88.1131 5.64262 88.9196 7.13535 89.4717 9.30393C89.7154 10.2612 89.8287 11.1659 89.8116 12.018C89.7945 12.8701 89.6413 13.6372 89.3521 14.3193C89.0629 15.0014 88.6357 15.5808 88.0706 16.0576C87.5055 16.5343 86.7931 16.8821 85.9335 17.1009ZM102.655 14.3908C101.761 14.4557 100.968 14.3591 100.277 14.1009C99.5863 13.8428 98.9964 13.4434 98.5075 12.9028C98.0185 12.3621 97.6316 11.6954 97.3467 10.9025C97.0618 10.1096 96.8829 9.21042 96.81 8.20506C96.7378 7.20975 96.7853 6.29673 96.9525 5.46598C97.1197 4.63524 97.406 3.9146 97.8114 3.30408C98.2169 2.69356 98.7426 2.20822 99.3886 1.84808C100.035 1.48794 100.805 1.27543 101.7 1.21054C102.594 1.14566 103.387 1.24481 104.079 1.50799C104.77 1.77117 105.36 2.17559 105.849 2.72123C106.339 3.26687 106.723 3.93884 107.004 4.73714C107.284 5.53544 107.46 6.43225 107.532 7.42756C107.605 8.43292 107.56 9.34827 107.398 10.1736C107.235 10.999 106.951 11.7144 106.545 12.3199C106.139 12.9254 105.613 13.4057 104.967 13.7608C104.321 14.1159 103.55 14.3259 102.655 14.3908ZM119.425 14.6202C118.522 14.5278 117.743 14.2733 117.086 13.8565C116.43 13.4397 115.86 12.7709 115.376 11.85L116.185 3.95327C116.91 3.10542 117.7 2.46684 118.554 2.03754C119.409 1.60824 120.332 1.4444 121.325 1.54601C122.859 1.70304 123.984 2.34758 124.699 3.47963C125.414 4.61167 125.658 6.29076 125.43 8.51689C125.329 9.4996 125.124 10.388 124.815 11.1822C124.506 11.9763 124.098 12.6439 123.592 13.1848C123.085 13.7258 122.485 14.1228 121.79 14.376C121.096 14.6291 120.307 14.7105 119.425 14.6202ZM137.805 18.7342C136.784 18.9878 135.735 18.961 134.659 18.6539C133.855 18.4242 133.188 18.0976 132.659 17.674C132.13 17.2505 131.735 16.7445 131.473 16.1561C131.211 15.5677 131.074 14.91 131.061 14.1831C131.049 13.4562 131.163 12.6711 131.403 11.8279L134.043 2.58095L135.439 2.97941L132.799 12.2263C132.412 13.5833 132.418 14.7356 132.819 15.6833C133.219 16.631 134.054 17.286 135.324 17.6485C136.264 17.9169 137.21 17.9275 138.161 17.6801C139.112 17.4327 140.034 16.9753 140.927 16.3077L144.032 5.43241L145.427 5.83087L141.298 20.2973L140.527 20.0773C140.285 20.0082 140.18 19.842 140.213 19.579L140.697 17.3898C139.79 18.0325 138.826 18.4806 137.805 18.7342ZM147.397 22.5587L155.998 2.31011L154.662 1.74262L146.061 21.9912L147.397 22.5587ZM155.881 27.0921C155.376 26.9401 154.856 26.7129 154.321 26.4104C153.873 26.1575 153.476 25.8463 153.129 25.4766C152.782 25.107 152.521 24.6932 152.346 24.2351C152.17 23.7771 152.104 23.2795 152.147 22.7423C152.19 22.2051 152.38 21.6381 152.717 21.0414C153.03 20.4885 153.478 20.0643 154.062 19.7689C154.645 19.4735 155.374 19.3412 156.248 19.372C157.122 19.4027 158.148 19.6115 159.324 19.9984C160.501 20.3853 161.84 20.9801 163.343 21.783L164.117 20.4139C164.801 19.2028 165.067 18.1229 164.914 17.174C164.761 16.2252 164.172 15.4607 163.145 14.8805C162.513 14.5235 161.926 14.3076 161.384 14.2327C160.841 14.1578 160.357 14.1389 159.931 14.176C159.505 14.2131 159.145 14.2648 158.853 14.3313C158.561 14.3977 158.349 14.3937 158.217 14.3194C158.121 14.2648 158.054 14.1982 158.018 14.1197C157.981 14.0411 157.96 13.9543 157.956 13.8593L157.948 13.3511C159.019 13.0533 160.032 12.9421 160.985 13.0175C161.938 13.0929 162.893 13.4008 163.849 13.9413C164.551 14.338 165.102 14.7969 165.503 15.3182C165.903 15.8395 166.158 16.4065 166.269 17.0193C166.381 17.632 166.357 18.2841 166.197 18.9757C166.038 19.6673 165.753 20.3772 165.341 21.1057L160.522 29.636L160.021 29.3534C159.758 29.2046 159.665 28.99 159.743 28.7096L160.503 26.9336C159.945 27.0814 159.409 27.1952 158.894 27.2753C158.38 27.3553 157.876 27.3827 157.38 27.3576C156.885 27.3325 156.385 27.244 155.881 27.0921ZM155.15 25.6806C154.808 25.4872 154.506 25.253 154.244 24.978C153.983 24.7029 153.79 24.3941 153.665 24.0515C153.54 23.7089 153.496 23.3365 153.532 22.9344C153.568 22.5323 153.71 22.1118 153.958 21.673C154.221 21.2078 154.594 20.8713 155.076 20.6633C155.558 20.4552 156.165 20.3845 156.898 20.4509C157.63 20.5174 158.492 20.7292 159.482 21.0863C160.473 21.4435 161.601 21.9565 162.867 22.6255L160.941 26.035C160.455 26.1774 159.978 26.2954 159.508 26.389C159.038 26.4825 158.566 26.5251 158.09 26.5168C157.614 26.5085 157.133 26.439 156.645 26.3082C156.157 26.1774 155.659 25.9682 155.15 25.6806ZM171.543 25.3768L165.671 33.144L164.513 32.2686L173.586 20.2681L174.201 20.7331C174.338 20.8365 174.413 20.9376 174.427 21.0364C174.44 21.1353 174.404 21.2591 174.316 21.4079L172.495 23.9925C173.051 23.6418 173.592 23.3652 174.118 23.1626C174.644 22.96 175.162 22.8431 175.672 22.8118C176.182 22.7805 176.681 22.8389 177.169 22.9869C177.658 23.135 178.135 23.3853 178.602 23.7379C178.851 23.9263 179.079 24.1339 179.287 24.3605C179.495 24.5871 179.649 24.8265 179.748 25.0789L179.05 25.802C178.913 25.9003 178.788 25.9068 178.675 25.8217C178.579 25.7488 178.453 25.6097 178.299 25.4045C178.144 25.1992 177.906 24.975 177.585 24.7319C177.118 24.3793 176.649 24.1386 176.178 24.0098C175.707 23.8809 175.226 23.8488 174.735 23.9135C174.243 23.9781 173.735 24.1369 173.209 24.3899C172.683 24.6429 172.127 24.9719 171.543 25.3768ZM180.479 55.1206L186.498 50.9315C186.213 51.7928 186.131 52.6361 186.251 53.4614C186.371 54.2867 186.722 55.1172 187.303 55.9528C187.908 56.8215 188.608 57.4737 189.402 57.9093C190.197 58.345 191.041 58.5923 191.936 58.6513C192.83 58.7103 193.751 58.5856 194.696 58.2772C195.642 57.9689 196.566 57.5009 197.468 56.8732C199.57 55.4106 200.85 53.8896 201.311 52.3103C201.771 50.731 201.475 49.1843 200.421 47.6703C199.788 46.7602 198.995 46.0896 198.044 45.6585C197.094 45.2273 196.056 44.9979 194.931 44.9701L196.764 43.5282C196.948 43.3512 196.968 43.1592 196.824 42.9524L196.366 42.2947L179.65 53.9292L180.479 55.1206ZM187.134 52.8104C187.245 53.5799 187.56 54.337 188.079 55.0816C188.585 55.8096 189.161 56.3546 189.806 56.7163C190.451 57.0781 191.143 57.2747 191.884 57.306C192.624 57.3373 193.396 57.2113 194.2 56.9282C195.004 56.6451 195.811 56.2213 196.622 55.657C198.458 54.3787 199.573 53.0994 199.965 51.8193C200.358 50.5391 200.113 49.2661 199.232 48.0003C198.662 47.1812 197.936 46.5876 197.053 46.2194C196.171 45.8512 195.172 45.6685 194.056 45.6713L187.541 50.2059C187.157 51.1727 187.022 52.0409 187.134 52.8104ZM195.468 70.2744C195.919 71.2542 196.487 72.0551 197.173 72.6771C197.859 73.2992 198.63 73.7346 199.488 73.9834C200.346 74.2321 201.27 74.2981 202.259 74.1813C203.248 74.0645 204.279 73.7595 205.35 73.2665C206.421 72.7735 207.325 72.1882 208.062 71.5107C208.799 70.8332 209.352 70.0877 209.721 69.2743C210.09 68.4609 210.264 67.5904 210.242 66.6628C210.22 65.7352 209.984 64.7816 209.533 63.8018C209.082 62.822 208.511 62.0221 207.821 61.4022C207.131 60.7822 206.356 60.3456 205.496 60.0922C204.636 59.8389 203.709 59.7717 202.715 59.8906C201.721 60.0095 200.688 60.3155 199.617 60.8085C198.546 61.3016 197.644 61.8858 196.912 62.5612C196.179 63.2366 195.63 63.9833 195.263 64.8013C194.896 65.6193 194.725 66.491 194.752 67.4165C194.778 68.342 195.017 69.2946 195.468 70.2744ZM195.934 67.4717C195.935 68.2091 196.123 68.9853 196.498 69.8003C196.873 70.6153 197.34 71.263 197.9 71.7434C198.459 72.2238 199.094 72.5476 199.803 72.7149C200.513 72.8822 201.282 72.897 202.112 72.7592C202.942 72.6214 203.815 72.3418 204.731 71.9204C205.637 71.5033 206.415 71.0233 207.064 70.4805C207.713 69.9377 208.207 69.3414 208.546 68.6917C208.885 68.0419 209.056 67.3472 209.06 66.6076C209.063 65.8681 208.878 65.0908 208.503 64.2758C208.128 63.4609 207.658 62.8142 207.094 62.3359C206.53 61.8576 205.891 61.5359 205.177 61.3707C204.463 61.2055 203.687 61.1906 202.851 61.3259C202.014 61.4612 201.143 61.7374 200.236 62.1546C199.321 62.576 198.542 63.0593 197.899 63.6046C197.257 64.1498 196.769 64.7463 196.434 65.394C196.1 66.0416 195.933 66.7342 195.934 67.4717ZM194.997 82.9824L202.096 81.1441C201.53 81.853 201.16 82.6152 200.986 83.4308C200.812 84.2464 200.852 85.147 201.108 86.1326C201.373 87.1572 201.803 88.0117 202.396 88.6961C202.99 89.3806 203.696 89.9058 204.515 90.2718C205.333 90.6377 206.239 90.8404 207.233 90.8797C208.228 90.919 209.256 90.8009 210.32 90.5255C212.799 89.8837 214.528 88.9022 215.508 87.5811C216.489 86.26 216.748 84.7065 216.285 82.9208C216.007 81.8474 215.497 80.9434 214.755 80.2089C214.013 79.4743 213.12 78.8988 212.075 78.4821L214.295 77.7667C214.528 77.6645 214.614 77.4914 214.551 77.2475L214.35 76.4717L194.633 81.5772L194.997 82.9824ZM202.04 83.1267C201.877 83.8872 201.91 84.7066 202.137 85.5848C202.36 86.4435 202.71 87.1545 203.189 87.7177C203.668 88.2808 204.25 88.7056 204.933 88.992C205.616 89.2785 206.384 89.4285 207.236 89.4421C208.088 89.4557 208.992 89.3387 209.949 89.0911C212.115 88.5301 213.604 87.7175 214.417 86.6533C215.229 85.5891 215.442 84.3104 215.056 82.8175C214.806 81.8514 214.331 81.0425 213.631 80.3907C212.931 79.7389 212.057 79.2206 211.01 78.8358L203.326 80.8257C202.631 81.5992 202.202 82.3662 202.04 83.1267ZM203.664 101.279C203.751 102.395 204.091 103.387 204.685 104.256C205.278 105.125 206.034 105.872 206.952 106.498L204.732 106.808C204.474 106.868 204.354 107.024 204.374 107.275L204.436 108.074L219.435 106.906L219.322 105.459L208.047 106.337C207.11 105.733 206.36 105.028 205.797 104.222C205.234 103.417 204.914 102.527 204.838 101.552C204.736 100.235 205.059 99.2244 205.808 98.5191C206.556 97.8137 207.634 97.4062 209.041 97.2966L218.629 96.55L218.516 95.1029L208.929 95.8495C208.054 95.9176 207.279 96.0841 206.602 96.3492C205.925 96.6142 205.356 96.9719 204.896 97.4223C204.435 97.8727 204.099 98.4196 203.886 99.063C203.673 99.7064 203.599 100.445 203.664 101.279ZM226.431 115.516L204.452 114.567L204.515 113.117L226.494 114.066L226.431 115.516ZM203.279 122.395C203.184 123.003 203.154 123.57 203.19 124.095C203.225 124.621 203.318 125.12 203.468 125.593C203.619 126.065 203.822 126.528 204.078 126.981C204.334 127.434 204.629 127.896 204.963 128.367L203.033 128.279C202.744 128.306 202.575 128.468 202.529 128.767L202.44 129.335L212.12 130.847C212.947 130.976 213.712 130.993 214.415 130.899C215.119 130.805 215.738 130.598 216.272 130.279C216.807 129.959 217.248 129.521 217.595 128.963C217.942 128.405 218.178 127.727 218.303 126.931C218.472 125.845 218.425 124.843 218.16 123.924C217.896 123.006 217.436 122.097 216.78 121.199L216.307 121.385C216.22 121.423 216.146 121.472 216.085 121.534C216.024 121.596 215.985 121.682 215.968 121.791C215.945 121.941 216.016 122.141 216.181 122.391C216.346 122.641 216.52 122.959 216.705 123.345C216.89 123.731 217.042 124.191 217.163 124.725C217.283 125.259 217.288 125.885 217.176 126.602C216.994 127.767 216.485 128.588 215.651 129.065C214.816 129.541 213.712 129.672 212.337 129.457L210.784 129.215C211.007 127.525 211.093 126.062 211.041 124.825C210.99 123.587 210.825 122.554 210.546 121.725C210.267 120.896 209.887 120.26 209.405 119.817C208.924 119.375 208.369 119.105 207.742 119.007C207.064 118.901 206.467 118.922 205.949 119.071C205.431 119.219 204.988 119.456 204.621 119.782C204.254 120.107 203.958 120.497 203.734 120.952C203.51 121.406 203.359 121.888 203.279 122.395ZM204.593 121.82C204.428 122.162 204.315 122.527 204.254 122.915C204.164 123.493 204.143 124.033 204.192 124.535C204.241 125.038 204.346 125.513 204.505 125.961C204.665 126.41 204.871 126.837 205.123 127.244C205.376 127.651 205.655 128.056 205.959 128.461L209.828 129.065C210.009 127.645 210.092 126.408 210.078 125.355C210.064 124.302 209.96 123.421 209.764 122.712C209.569 122.003 209.289 121.46 208.925 121.081C208.561 120.703 208.115 120.473 207.587 120.39C207.089 120.312 206.645 120.327 206.256 120.435C205.867 120.542 205.534 120.715 205.257 120.952C204.98 121.189 204.759 121.479 204.593 121.82ZM200.962 135.398L210.295 138.173C210.879 138.577 211.382 138.982 211.804 139.386C212.225 139.79 212.552 140.211 212.785 140.648C213.018 141.085 213.157 141.547 213.201 142.033C213.246 142.52 213.185 143.043 213.018 143.604C212.904 143.99 212.777 144.292 212.639 144.508C212.501 144.725 212.415 144.891 212.38 145.007C212.34 145.143 212.39 145.257 212.53 145.352L213.453 145.752C213.654 145.57 213.824 145.342 213.964 145.068C214.103 144.794 214.217 144.507 214.306 144.207C214.473 143.647 214.54 143.112 214.507 142.603C214.474 142.094 214.354 141.606 214.146 141.139C213.937 140.672 213.646 140.228 213.272 139.807C212.898 139.385 212.449 138.976 211.926 138.578L214.985 139.377C215.155 139.407 215.284 139.398 215.371 139.35C215.459 139.303 215.527 139.197 215.576 139.033L215.796 138.293L201.375 134.007L200.962 135.398ZM191.572 161.127L185.55 156.942L186.378 155.751L203.103 167.373L202.646 168.031C202.502 168.238 202.315 168.286 202.085 168.175L200.096 166.958C200.461 168.022 200.607 169.075 200.534 170.116C200.461 171.158 200.108 172.134 199.475 173.045C198.422 174.559 197.076 175.376 195.435 175.494C193.794 175.612 191.922 174.94 189.82 173.479C188.917 172.852 188.157 172.149 187.539 171.369C186.92 170.59 186.483 169.771 186.227 168.911C185.971 168.052 185.909 167.174 186.041 166.278C186.173 165.382 186.541 164.499 187.145 163.63C187.726 162.794 188.382 162.176 189.114 161.776C189.846 161.376 190.665 161.16 191.572 161.127ZM188.231 164.053C188.749 163.308 189.349 162.749 190.032 162.377C190.714 162.004 191.575 161.829 192.615 161.852L199.134 166.382C199.525 167.427 199.701 168.427 199.663 169.382C199.625 170.338 199.321 171.225 198.752 172.045C197.872 173.311 196.763 173.984 195.427 174.061C194.09 174.139 192.503 173.539 190.665 172.262C189.854 171.699 189.176 171.089 188.63 170.434C188.085 169.779 187.699 169.099 187.47 168.394C187.242 167.689 187.185 166.972 187.3 166.241C187.415 165.511 187.725 164.782 188.231 164.053ZM174.912 178.713C175.255 177.853 175.807 177.041 176.568 176.277C177.329 175.512 178.139 174.956 178.997 174.608C179.855 174.26 180.731 174.116 181.626 174.174C182.52 174.232 183.412 174.487 184.3 174.937C185.189 175.388 186.051 176.029 186.887 176.861C187.723 177.693 188.37 178.554 188.828 179.444C189.287 180.333 189.547 181.226 189.61 182.12C189.673 183.014 189.534 183.893 189.194 184.756C188.854 185.62 188.304 186.434 187.543 187.198C186.782 187.963 185.971 188.517 185.109 188.861C184.248 189.205 183.371 189.346 182.48 189.284C181.589 189.222 180.697 188.964 179.805 188.51C178.913 188.056 178.049 187.413 177.213 186.582C176.377 185.75 175.732 184.891 175.277 184.004C174.823 183.118 174.562 182.229 174.496 181.339C174.429 180.448 174.568 179.573 174.912 178.713ZM177.372 177.076C178.005 176.441 178.667 175.993 179.357 175.735C180.048 175.477 180.755 175.391 181.479 175.479C182.203 175.566 182.932 175.816 183.667 176.227C184.402 176.639 185.127 177.2 185.842 177.911C186.549 178.615 187.112 179.335 187.531 180.072C187.95 180.809 188.206 181.541 188.301 182.267C188.395 182.994 188.317 183.705 188.065 184.401C187.814 185.096 187.372 185.762 186.739 186.398C186.106 187.034 185.443 187.479 184.748 187.734C184.054 187.989 183.343 188.071 182.616 187.98C181.889 187.889 181.157 187.634 180.422 187.215C179.687 186.796 178.966 186.235 178.259 185.531C177.544 184.82 176.977 184.1 176.559 183.37C176.14 182.641 175.885 181.914 175.794 181.191C175.704 180.468 175.786 179.76 176.04 179.068C176.295 178.376 176.739 177.712 177.372 177.076ZM168.705 186.29L164.491 180.288L165.679 179.454L177.382 196.122L176.727 196.583C176.52 196.728 176.328 196.708 176.151 196.525L174.701 194.698C174.678 195.823 174.453 196.861 174.026 197.814C173.598 198.767 172.931 199.562 172.024 200.199C170.514 201.259 168.968 201.562 167.387 201.108C165.806 200.654 164.28 199.379 162.809 197.284C162.177 196.385 161.705 195.463 161.393 194.518C161.081 193.574 160.952 192.654 161.008 191.759C161.063 190.864 161.307 190.019 161.739 189.222C162.172 188.426 162.821 187.724 163.687 187.116C164.52 186.531 165.349 186.176 166.174 186.053C166.999 185.93 167.842 186.008 168.705 186.29ZM164.561 187.887C165.304 187.366 166.06 187.048 166.829 186.933C167.598 186.818 168.467 186.95 169.435 187.329L173.996 193.826C174.004 194.941 173.825 195.941 173.461 196.825C173.096 197.709 172.505 198.438 171.689 199.012C170.427 199.898 169.155 200.147 167.873 199.76C166.591 199.373 165.307 198.264 164.021 196.433C163.454 195.624 163.027 194.819 162.74 194.016C162.454 193.213 162.325 192.442 162.353 191.701C162.381 190.961 162.575 190.268 162.934 189.621C163.293 188.975 163.836 188.397 164.561 187.887ZM147.97 196.831C148.575 195.971 149.384 195.304 150.398 194.83C151.156 194.477 151.874 194.286 152.551 194.259C153.228 194.233 153.859 194.356 154.442 194.628C155.025 194.901 155.56 195.308 156.046 195.849C156.532 196.39 156.96 197.057 157.331 197.852L161.398 206.566L160.083 207.18L156.016 198.466C155.419 197.187 154.659 196.321 153.735 195.868C152.812 195.414 151.752 195.467 150.555 196.025C149.669 196.439 148.948 197.051 148.392 197.861C147.836 198.671 147.439 199.621 147.202 200.71L151.985 210.959L150.67 211.573L144.307 197.94L145.034 197.601C145.262 197.494 145.45 197.551 145.597 197.772L146.667 199.742C146.931 198.662 147.365 197.692 147.97 196.831ZM138.237 200.219L145.014 221.149L146.395 220.701L139.618 199.772L138.237 200.219ZM128.855 202.354C129.336 202.138 129.877 201.969 130.48 201.847C130.984 201.745 131.488 201.72 131.992 201.772C132.496 201.824 132.965 201.965 133.397 202.197C133.83 202.428 134.206 202.76 134.525 203.194C134.845 203.628 135.072 204.181 135.209 204.853C135.335 205.475 135.274 206.089 135.027 206.695C134.779 207.301 134.315 207.878 133.635 208.428C132.954 208.977 132.043 209.491 130.901 209.969C129.758 210.448 128.356 210.876 126.695 211.254L127.007 212.795C127.284 214.159 127.791 215.149 128.528 215.766C129.265 216.382 130.211 216.573 131.367 216.339C132.078 216.195 132.663 215.973 133.122 215.675C133.581 215.376 133.959 215.073 134.257 214.766C134.554 214.458 134.792 214.184 134.969 213.942C135.146 213.701 135.309 213.565 135.457 213.535C135.566 213.513 135.66 213.519 135.739 213.555C135.818 213.59 135.891 213.642 135.956 213.711L136.295 214.09C135.681 215.017 134.989 215.764 134.219 216.331C133.45 216.899 132.527 217.292 131.45 217.51C130.66 217.67 129.943 217.685 129.299 217.553C128.655 217.421 128.09 217.16 127.605 216.77C127.12 216.38 126.711 215.872 126.378 215.245C126.045 214.618 125.795 213.895 125.629 213.075L123.682 203.473L124.245 203.358C124.541 203.298 124.752 203.4 124.877 203.662L125.467 205.502C125.791 205.025 126.122 204.587 126.458 204.19C126.794 203.793 127.157 203.442 127.548 203.136C127.938 202.831 128.374 202.57 128.855 202.354ZM130.332 202.942C130.717 202.864 131.098 202.843 131.476 202.879C131.854 202.916 132.202 203.023 132.521 203.2C132.839 203.377 133.117 203.629 133.353 203.957C133.589 204.284 133.757 204.695 133.857 205.189C133.964 205.712 133.903 206.211 133.675 206.684C133.447 207.157 133.034 207.608 132.437 208.038C131.84 208.467 131.051 208.872 130.068 209.251C129.086 209.63 127.897 209.982 126.502 210.306L125.724 206.468C125.998 206.042 126.281 205.64 126.575 205.262C126.868 204.883 127.198 204.542 127.563 204.236C127.927 203.931 128.337 203.668 128.791 203.447C129.245 203.226 129.759 203.058 130.332 202.942ZM118.145 213.911L117.495 204.196L118.943 204.099L119.948 219.11L119.179 219.161C119.008 219.173 118.885 219.146 118.81 219.08C118.734 219.014 118.681 218.897 118.65 218.727L118.333 215.581C118.143 216.21 117.915 216.773 117.65 217.271C117.386 217.768 117.071 218.196 116.706 218.554C116.341 218.912 115.925 219.195 115.459 219.403C114.994 219.611 114.469 219.734 113.886 219.773C113.574 219.794 113.265 219.787 112.96 219.752C112.654 219.717 112.381 219.637 112.14 219.511L112.195 218.507C112.234 218.343 112.324 218.256 112.465 218.247C112.586 218.239 112.772 218.262 113.023 218.316C113.274 218.37 113.601 218.383 114.003 218.356C114.586 218.317 115.098 218.192 115.539 217.981C115.979 217.769 116.364 217.478 116.692 217.108C117.021 216.737 117.302 216.284 117.533 215.748C117.765 215.212 117.969 214.6 118.145 213.911Z" fill="#FF5B74"/>
</svg>
